LEARNING LOG 

Time: 03/02/2020 20:02:47
Evaluation of trained model

Results Table:
 |Sprint Distance  |Reward           |Final Sep.       |Win?             |
 |650              |0.63220871212649 |-102.72445876547 |N                |
 |600              |0.61759023651808 |-109.04217126188 |N                |
 |550              |0.59976000945017 |-114.14410449326 |N                |
 |500              |0.57736825561986 |-118.14023198991 |N                |
 |450              |0.54695042315004 |-122.04378775082 |N                |
 |400              |0.52495127474500 |-124.63295049400 |N                |
 |350              |0.48987792545315 |-124.09318163289 |N                |
 |300              |0.45826079384562 |-120.62125419011 |N                |
 |250              |0.42782100281843 |-111.12702154752 |N                |

Average separation value = -116.28546245843376
