LEARNING LOG 

Time: 12/02/2020 17:08:39
Evaluation of model defined in msr_eval_24128

Sprint Distance Table:
 |Sprint Distance  |Reward           |Final Sep.       |Win?             |
 |650.0            |0.05568768969509 |-602.37915480692 |N                |
 |640.0            |0.05389956736907 |-596.83347988836 |N                |
 |630.0            |0.05353561658741 |-586.05814888986 |N                |
 |620.0            |0.30461437458662 |-371.29370670864 |N                |
 |610.0            |0.31503936683298 |-354.91493601861 |N                |
 |600.0            |0.31671505375635 |-349.74537961246 |N                |
 |590.0            |0.35846342376488 |-308.99572753326 |N                |
 |580.0            |0.36389548409398 |-301.43093845103 |N                |
 |570.0            |0.67856213941468 |-54.832651696058 |N                |
 |560.0            |0.68498335445416 |-50.824043738571 |N                |
 |550.0            |0.69153474177743 |-46.842564377097 |N                |
 |540.0            |0.69457303838229 |-41.316753533120 |N                |
 |530.0            |0.70165431752710 |-37.137700087904 |N                |
 |520.0            |0.69926689755238 |-35.401435731517 |N                |
 |510.0            |0.70971032858161 |-29.055969127900 |N                |
 |500.0            |0.72069318005207 |-22.575248623438 |N                |
 |490.0            |0.72839614320451 |-14.117498349775 |N                |
 |480.0            |0.74683861969574 |-3.2401438302983 |N                |
 |470.0            |2.01562950339484 |1.01562950339484 |Y                |
 |460.0            |1.44887586898028 |0.44887586898028 |Y                |
 |450.0            |1.14958240792827 |0.14958240792827 |Y                |
 |440.0            |1.37383770181963 |0.37383770181963 |Y                |
 |430.0            |2.05244228834067 |1.05244228834067 |Y                |
 |420.0            |2.54725992916723 |1.54725992916723 |Y                |
 |410.0            |2.22098398860498 |1.22098398860498 |Y                |
 |400.0            |0.75447730008939 |-0.2896506073757 |N                |
 |390.0            |0.74611280350661 |-4.5974716360993 |N                |
 |380.0            |0.74490667913973 |-6.4586572325888 |N                |
 |370.0            |0.74398954346507 |-7.5683682915123 |N                |
 |360.0            |0.74295399307163 |-7.9168524624404 |N                |
 |350.0            |0.74121004998391 |-8.5512147454146 |N                |
 |340.0            |0.73894681196445 |-9.3754667425056 |N                |
 |330.0            |0.73807403925131 |-9.5444460998686 |N                |
 |320.0            |0.73831181605987 |-9.2379275345116 |N                |
 |310.0            |0.73641431085658 |-9.8392971137118 |N                |
 |300.0            |0.73467942966647 |-10.330629136181 |N                |
 |290.0            |0.73200985903372 |-11.128748148910 |N                |
 |280.0            |0.73559905595389 |-9.5571651154571 |N                |
 |270.0            |0.73293430562497 |-10.220629169872 |N                |
 |260.0            |0.73556511897444 |-8.9858663878052 |N                |
 |250.0            |0.73524961555686 |-8.7557870207057 |N                |

Win rate = 0.17073170731707318
Average separation value = -95.94012309174602
