LEARNING LOG 

Time: 31/01/2020 10:40:43
Set of learning runs, each corresponding to 150000 timesteps on action space with 7 elements, using scaled_distance reward mode.

Final performance table:
 |Run             |Best av. R      |Best Win Rate   |Best av. eval. R|Step            |Walltime        |
 |1               |1.5250033619999 |0.6             |0.9570264277604 |149159          |12.187151379466 |
 |2               |1.422535558     |0.4             |0.9850456078242 |48106           |12.562037717166 |
 |3               |1.653380286     |0.8             |2.0302206465448 |65121           |12.569756750349 |
 |4               |1.430551137     |0.4             |2.8548859797912 |69623           |12.376893222316 |
 |5               |1.3725364679999 |0.8             |2.9843402160760 |59482           |12.400681184933 |
 |6               |1.455419576     |0.6             |2.8144549716418 |74727           |12.425886113833 |
 |7               |1.6322242489999 |0.4             |0.9850456078242 |38499           |12.755470759883 |

Run / Timestep win rates:
 |Run   |25000 |50000 |75000 |100000|125000|150000 |
 |1     |3656  |3656  |3656  |3656  |3656  |3656   |
 |2     |7678  |48106 |48106 |48106 |48106 |48106  |
 |3     |22125 |48917 |48917 |48917 |48917 |48917  |
 |4     |18442 |42495 |42495 |42495 |42495 |42495  |
 |5     |3900  |37531 |59482 |59482 |59482 |59482  |
 |6     |7875  |44184 |74727 |74727 |74727 |74727  |
 |7     |14039 |38499 |38499 |38499 |38499 |38499  |

Average over runs:
 |Number of runs  |Average Win Rate|
 |1               |0.6             |
 |2               |0.5             |
 |3               |0.6             |
 |4               |0.55            |
 |5               |0.6             |
 |6               |0.6             |
 |7               |0.5714285714285 |

Total Wall time (mins) = 87.28162372519999
Average Wall time per run (mins) = 12.468803389314285
