Rewards: 
0.7526068116097563
1.264508039679754
1.250432917402918
0.7527744306467541
0.752330832846408
1.1812087189325666
1.4134901021261612
0.7546312067444205
0.7488975194274369

Separation values: 
-0.17694025441562644
0.2645080396797539
0.25043291740291806
-0.23854673394055226
-0.32414056302980043
0.18120871893256663
0.4134901021261612
-0.0748872703335337
-0.49100185153849907
