LEARNING LOG 

Time: 02/02/2020 19:34:14
Evaluation of model defined in msr_eval_2065

Sprint Distance Table:
 |Sprint Distance  |Reward           |Final Sep.       |Win?             |
 |650.0            |0.71111331905661 |-34.339739504987 |N                |
 |640.0            |0.70824582021060 |-38.454161092876 |N                |
 |630.0            |0.71082701300604 |-33.929547459130 |N                |
 |620.0            |0.70588741038118 |-39.571249732515 |N                |
 |610.0            |0.69986119048520 |-41.922804985402 |N                |
 |600.0            |0.72283837784283 |-24.839140359251 |N                |
 |590.0            |0.72130076402438 |-23.556728423084 |N                |
 |580.0            |0.72541739480549 |-21.845736686626 |N                |
 |570.0            |0.74670118951762 |-3.0222053858803 |N                |
 |560.0            |5.06260092504453 |4.06260092504453 |Y                |
 |550.0            |6.33065576257445 |5.33065576257445 |Y                |
 |540.0            |5.91792979129093 |4.91792979129093 |Y                |
 |530.0            |6.10547120107571 |5.10547120107571 |Y                |
 |520.0            |6.10483572566033 |5.10483572566033 |Y                |
 |510.0            |6.06263310509609 |5.06263310509609 |Y                |
 |500.0            |6.10398697914058 |5.10398697914058 |Y                |
 |490.0            |5.97580458025413 |4.97580458025413 |Y                |
 |480.0            |4.75389722478371 |3.75389722478371 |Y                |
 |470.0            |5.06199542322588 |4.06199542322588 |Y                |
 |460.0            |0.75548548668564 |-0.2252968738689 |N                |
 |450.0            |2.37541619330079 |1.37541619330079 |Y                |
 |440.0            |0.73120513422324 |-12.228114658242 |N                |
 |430.0            |0.72068348109151 |-18.950977560068 |N                |
 |420.0            |0.72093321991124 |-19.299507946739 |N                |
 |410.0            |0.72373543032065 |-18.199562309308 |N                |
 |400.0            |0.72380640524340 |-18.571729962482 |N                |
 |390.0            |0.70377509531283 |-24.668483980706 |N                |
 |380.0            |0.70443251140234 |-24.327986312454 |N                |
 |370.0            |0.70561219924669 |-23.686150015197 |N                |
 |360.0            |0.70528974859369 |-23.735915527947 |N                |
 |350.0            |0.69944711030033 |-26.292559396527 |N                |
 |340.0            |0.70140326727695 |-25.095901850552 |N                |
 |330.0            |0.70226413385276 |-24.372829411005 |N                |
 |320.0            |0.69267297667105 |-28.073250783913 |N                |
 |310.0            |0.68457791331726 |-30.839190736951 |N                |
 |300.0            |0.66952938983669 |-36.112649972066 |N                |
 |290.0            |0.65282559892979 |-41.566401609456 |N                |
 |280.0            |0.53866378823988 |-82.906748988636 |N                |
 |270.0            |0.53578931311020 |-81.082793914964 |N                |
 |260.0            |0.53246743498454 |-79.286177708614 |N                |
 |250.0            |0.52652787935542 |-78.225453406770 |N                |

Win rate = 0.2682926829268293
Average separation value = -22.692043162067865
LEARNING LOG 

Time: 03/02/2020 14:32:49
Evaluation of model defined in msr_eval_2065

Sprint Distance Table:
 |Sprint Distance  |Reward           |Final Sep.       |Win?             |
 |650.0            |0.71111331905661 |-34.339739504987 |N                |
 |640.0            |0.70824582021060 |-38.454161092876 |N                |
 |630.0            |0.71082701300604 |-33.929547459130 |N                |
 |620.0            |0.70588741038118 |-39.571249732515 |N                |
 |610.0            |0.69986119048520 |-41.922804985402 |N                |
 |600.0            |0.72283837784283 |-24.839140359251 |N                |
 |590.0            |0.72130076402438 |-23.556728423084 |N                |
 |580.0            |0.72541739480549 |-21.845736686626 |N                |
 |570.0            |0.74670118951762 |-3.0222053858803 |N                |
 |560.0            |5.06260092504453 |4.06260092504453 |Y                |
 |550.0            |6.33065576257445 |5.33065576257445 |Y                |
 |540.0            |5.91792979129093 |4.91792979129093 |Y                |
 |530.0            |6.10547120107571 |5.10547120107571 |Y                |
 |520.0            |6.10483572566033 |5.10483572566033 |Y                |
 |510.0            |6.06263310509609 |5.06263310509609 |Y                |
 |500.0            |6.10398697914058 |5.10398697914058 |Y                |
 |490.0            |5.97580458025413 |4.97580458025413 |Y                |
 |480.0            |4.75389722478371 |3.75389722478371 |Y                |
 |470.0            |5.06199542322588 |4.06199542322588 |Y                |
 |460.0            |0.75548548668564 |-0.2252968738689 |N                |
 |450.0            |2.37541619330079 |1.37541619330079 |Y                |
 |440.0            |0.73120513422324 |-12.228114658242 |N                |
 |430.0            |0.72068348109151 |-18.950977560068 |N                |
 |420.0            |0.72093321991124 |-19.299507946739 |N                |
 |410.0            |0.72373543032065 |-18.199562309308 |N                |
 |400.0            |0.72380640524340 |-18.571729962482 |N                |
 |390.0            |0.70377509531283 |-24.668483980706 |N                |
 |380.0            |0.70443251140234 |-24.327986312454 |N                |
 |370.0            |0.70561219924669 |-23.686150015197 |N                |
 |360.0            |0.70528974859369 |-23.735915527947 |N                |
 |350.0            |0.69944711030033 |-26.292559396527 |N                |
 |340.0            |0.70140326727695 |-25.095901850552 |N                |
 |330.0            |0.70226413385276 |-24.372829411005 |N                |
 |320.0            |0.69267297667105 |-28.073250783913 |N                |
 |310.0            |0.68457791331726 |-30.839190736951 |N                |
 |300.0            |0.66952938983669 |-36.112649972066 |N                |
 |290.0            |0.65282559892979 |-41.566401609456 |N                |
 |280.0            |0.53866378823988 |-82.906748988636 |N                |
 |270.0            |0.53578931311020 |-81.082793914964 |N                |
 |260.0            |0.53246743498454 |-79.286177708614 |N                |
 |250.0            |0.52652787935542 |-78.225453406770 |N                |

Win rate = 0.2682926829268293
Average separation value = -22.692043162067865
