LEARNING LOG 

Time: 02/02/2020 19:26:14
Evaluation of model defined in msr_eval_40519

Sprint Distance Table:
 |Sprint Distance  |Reward           |Final Sep.       |Win?             |
 |650.0            |0.75412322948799 |-0.1097005057930 |N                |
 |640.0            |1.05094080711808 |0.05094080711808 |Y                |
 |630.0            |1.15680281323022 |0.15680281323022 |Y                |
 |620.0            |1.25285135087619 |0.25285135087619 |Y                |
 |610.0            |1.33275323418104 |0.33275323418104 |Y                |
 |600.0            |1.41231634320524 |0.41231634320524 |Y                |
 |590.0            |1.43417271005614 |0.43417271005614 |Y                |
 |580.0            |1.42918323970843 |0.42918323970843 |Y                |
 |570.0            |1.39693030840624 |0.39693030840624 |Y                |
 |560.0            |1.33817585618032 |0.33817585618032 |Y                |
 |550.0            |1.20584627560322 |0.20584627560322 |Y                |
 |540.0            |1.09523887684952 |0.09523887684952 |Y                |
 |530.0            |0.75287753859511 |-0.0245151321918 |N                |
 |520.0            |0.75382587103172 |-0.1439451381497 |N                |
 |510.0            |0.75475111286127 |-0.2534976196328 |N                |
 |500.0            |0.75565729672423 |-0.3450602437844 |N                |
 |490.0            |0.75654715387891 |-0.4126124020856 |N                |
 |480.0            |0.74995977225234 |-0.4604914649021 |N                |
 |470.0            |0.75063545334907 |-0.4536754169650 |N                |
 |460.0            |0.75128736209894 |-0.4151287105843 |N                |
 |450.0            |0.75191239760868 |-0.3458491134462 |N                |
 |440.0            |0.75250558842271 |-0.2488034070177 |N                |
 |430.0            |0.75305926168372 |-0.1296709179274 |N                |
 |420.0            |1.00263356102959 |0.00263356102959 |Y                |
 |410.0            |1.13657256383351 |0.13657256383351 |Y                |
 |400.0            |1.26009757420945 |0.26009757420945 |Y                |
 |390.0            |1.36297200190983 |0.36297200190983 |Y                |
 |380.0            |1.43778389926103 |0.43778389926103 |Y                |
 |370.0            |1.47971061171313 |0.47971061171313 |Y                |
 |360.0            |1.48593025586239 |0.48593025586239 |Y                |
 |350.0            |1.45525442344830 |0.45525442344830 |Y                |
 |340.0            |1.38817385218317 |0.38817385218317 |Y                |
 |330.0            |1.28739198721734 |0.28739198721734 |Y                |
 |320.0            |1.15882899161624 |0.15882899161624 |Y                |
 |310.0            |1.01260510712404 |0.01260510712404 |Y                |
 |300.0            |0.75046478464738 |-0.1373734206975 |N                |
 |290.0            |0.76275591605284 |-0.2090510947189 |N                |
 |280.0            |0.76179257273535 |-0.3374050088990 |N                |
 |270.0            |0.76069249118757 |-0.4373419613284 |N                |
 |260.0            |0.75945862227808 |-0.5019970226685 |N                |
 |250.0            |0.75809171297319 |-0.5273597422570 |N                |

Win rate = 0.5609756097560976
Average separation value = 0.02633386150664758
LEARNING LOG 

Time: 03/02/2020 14:17:18
Evaluation of model defined in msr_eval_40519

Sprint Distance Table:
 |Sprint Distance  |Reward           |Final Sep.       |Win?             |
 |650.0            |0.75412322948799 |-0.1097005057930 |N                |
 |640.0            |1.05094080711808 |0.05094080711808 |Y                |
 |630.0            |1.15680281323022 |0.15680281323022 |Y                |
 |620.0            |1.25285135087619 |0.25285135087619 |Y                |
 |610.0            |1.33275323418104 |0.33275323418104 |Y                |
 |600.0            |1.41231634320524 |0.41231634320524 |Y                |
 |590.0            |1.43417271005614 |0.43417271005614 |Y                |
 |580.0            |1.42918323970843 |0.42918323970843 |Y                |
 |570.0            |1.39693030840624 |0.39693030840624 |Y                |
 |560.0            |1.33817585618032 |0.33817585618032 |Y                |
 |550.0            |1.20584627560322 |0.20584627560322 |Y                |
 |540.0            |1.09523887684952 |0.09523887684952 |Y                |
 |530.0            |0.75287753859511 |-0.0245151321918 |N                |
 |520.0            |0.75382587103172 |-0.1439451381497 |N                |
 |510.0            |0.75475111286127 |-0.2534976196328 |N                |
 |500.0            |0.75565729672423 |-0.3450602437844 |N                |
 |490.0            |0.75654715387891 |-0.4126124020856 |N                |
 |480.0            |0.74995977225234 |-0.4604914649021 |N                |
 |470.0            |0.75063545334907 |-0.4536754169650 |N                |
 |460.0            |0.75128736209894 |-0.4151287105843 |N                |
 |450.0            |0.75191239760868 |-0.3458491134462 |N                |
 |440.0            |0.75250558842271 |-0.2488034070177 |N                |
 |430.0            |0.75305926168372 |-0.1296709179274 |N                |
 |420.0            |1.00263356102959 |0.00263356102959 |Y                |
 |410.0            |1.13657256383351 |0.13657256383351 |Y                |
 |400.0            |1.26009757420945 |0.26009757420945 |Y                |
 |390.0            |1.36297200190983 |0.36297200190983 |Y                |
 |380.0            |1.43778389926103 |0.43778389926103 |Y                |
 |370.0            |1.47971061171313 |0.47971061171313 |Y                |
 |360.0            |1.48593025586239 |0.48593025586239 |Y                |
 |350.0            |1.45525442344830 |0.45525442344830 |Y                |
 |340.0            |1.38817385218317 |0.38817385218317 |Y                |
 |330.0            |1.28739198721734 |0.28739198721734 |Y                |
 |320.0            |1.15882899161624 |0.15882899161624 |Y                |
 |310.0            |1.01260510712404 |0.01260510712404 |Y                |
 |300.0            |0.75046478464738 |-0.1373734206975 |N                |
 |290.0            |0.76275591605284 |-0.2090510947189 |N                |
 |280.0            |0.76179257273535 |-0.3374050088990 |N                |
 |270.0            |0.76069249118757 |-0.4373419613284 |N                |
 |260.0            |0.75945862227808 |-0.5019970226685 |N                |
 |250.0            |0.75809171297319 |-0.5273597422570 |N                |

Win rate = 0.5609756097560976
Average separation value = 0.02633386150664758
