LEARNING LOG 

Time: 12/02/2020 17:08:30
Evaluation of model defined in msr_eval_33081

Sprint Distance Table:
 |Sprint Distance  |Reward           |Final Sep.       |Win?             |
 |650.0            |0.65511574486888 |-82.872651179015 |N                |
 |640.0            |0.65694402133296 |-82.233365923846 |N                |
 |630.0            |0.65686917861094 |-79.255791003095 |N                |
 |620.0            |0.66245004117361 |-75.480732824511 |N                |
 |610.0            |0.66508745827235 |-70.207013075088 |N                |
 |600.0            |0.67429672423574 |-63.677909639321 |N                |
 |590.0            |0.67578614615128 |-59.367934435765 |N                |
 |580.0            |0.68138372579666 |-55.906277252873 |N                |
 |570.0            |0.69207777392233 |-44.560441850564 |N                |
 |560.0            |0.69850210500651 |-40.729417878940 |N                |
 |550.0            |0.70841632241657 |-34.460038845124 |N                |
 |540.0            |0.71165257759816 |-29.015255155258 |N                |
 |530.0            |0.72284460595478 |-22.154334610913 |N                |
 |520.0            |1.81371512017847 |0.81371512017847 |Y                |
 |510.0            |5.69513430905237 |4.69513430905237 |Y                |
 |500.0            |5.57156351634125 |4.57156351634125 |Y                |
 |490.0            |5.55724394256230 |4.55724394256230 |Y                |
 |480.0            |5.24910041414068 |4.24910041414068 |Y                |
 |470.0            |4.97753440428562 |3.97753440428562 |Y                |
 |460.0            |4.59624114019675 |3.59624114019675 |Y                |
 |450.0            |4.17665210949871 |3.17665210949871 |Y                |
 |440.0            |4.19641591319486 |3.19641591319486 |Y                |
 |430.0            |3.54148435382035 |2.54148435382035 |Y                |
 |420.0            |3.81134616056010 |2.81134616056010 |Y                |
 |410.0            |3.45431611302592 |2.45431611302592 |Y                |
 |400.0            |3.12722044819247 |2.12722044819247 |Y                |
 |390.0            |2.84289828164855 |1.84289828164855 |Y                |
 |380.0            |2.60476403923678 |1.60476403923678 |Y                |
 |370.0            |2.07817806858918 |1.07817806858918 |Y                |
 |360.0            |1.64386433093523 |0.64386433093523 |Y                |
 |350.0            |1.55852996361875 |0.55852996361875 |Y                |
 |340.0            |1.31931886206427 |0.31931886206427 |Y                |
 |330.0            |1.30585170174924 |0.30585170174924 |Y                |
 |320.0            |1.12162302972865 |0.12162302972865 |Y                |
 |310.0            |1.01260510712404 |0.01260510712404 |Y                |
 |300.0            |0.75046478464738 |-0.1373734206975 |N                |
 |290.0            |0.76275591605284 |-0.2090510947189 |N                |
 |280.0            |0.76179257273535 |-0.3374050088990 |N                |
 |270.0            |0.76069249118757 |-0.4373419613284 |N                |
 |260.0            |0.75945862227808 |-0.5019970226685 |N                |
 |250.0            |0.75809171297319 |-0.5273597422570 |N                |

Win rate = 0.5365853658536586
Average separation value = -16.89795342914988
