250 - 0.20227974222213074
253.86483169705468 - 0.138
256.19828190743334 - 0.10990831550318525
258.53173211781206 - 0.10280159396402588
260.8651823281907 - 0.09569487242486563
263.1986325385694 - 0.102315487829431
265.5320827489481 - 0.1257715164668669
267.86553295932674 - 0.14974555781916
270.19898316970546 - 0.173201586456595
272.5324333800841 - 0.20080171681289194
274.86588359046283 - 0.2366900506069074
277.1993338008415 - 0.2723193780434956
279.5327840112202 - 0.30898473090979817
281.86623422159886 - 0.3484991537078175
284.1996844319775 - 0.4066620342407079
286.53313464235623 - 0.4666379592756007
288.8665848527349 - 0.5260958715956354
291.2000350631136 - 0.5845177584859558
293.53348527349226 - 0.6240321812839751
295.866935483871 - 0.6557764133591322
298.20038569424963 - 0.6867436263620013
300.5338359046283 - 0.7177108393648712
302.867286115007 - 0.7523041413717451
305.20073632538566 - 0.7913005514549063
307.5341865357644 - 0.8300379551806394
309.86763674614303 - 0.8687753589063725
312.20108695652175 - 0.9121748770658238
314.5345371669004 - 0.9594594905867053
316.86798737727906 - 1.0064850977501596
319.2014375876578 - 1.0542877239859
321.53488779803644 - 1.0917300959244889
323.8683380084151 - 1.0993867367587686
326.2017882187938 - 1.1088564220950516
328.5352384291725 - 1.1141820057124718
330.8686886395512 - 1.127536786410186
333.20213884992984 - 1.1639431329190595
335.53558906030855 - 1.2034575557170788
337.8690392706872 - 1.2437489975873843
340.20248948106587 - 1.2822273949556893
342.5359396914446 - 1.3103455380268425
344.8693899018233 - 1.3345785857365646
347.20284011220195 - 1.3580346143740005
349.5362903225806 - 1.3820086557262927
351.8697405329593 - 1.4049466716488714
354.203190743338 - 1.4294387257160217
356.53664095371664 - 1.4534127670683148
358.87009116409536 - 1.4766097893483208
361.20354137447407 - 1.5109440849977656
363.53699158485273 - 1.557969692161219
365.8704417952314 - 1.6049952993246732
368.2038920056101 - 1.6530569319178419
370.4312762973352 - 1.7042836034302136
372.6586605890603 - 1.7709470538453411
374.77997896213185 - 1.836142207230111
376.79523141654977 - 1.898280491258963
379.0226157082749 - 1.9641151213303178
381.3560659186536 - 1.9943053152609007
383.6895161290322 - 2.0019619560951813
386.0229663394109 - 2.005474495210601
388.3564165497896 - 2.0136491487597388
390.6898667601683 - 2.035033126537744
393.02331697054694 - 2.076878606552622
395.35676718092566 - 2.117947067495214
397.6902173913043 - 2.1597925475100928
400.023667601683 - 2.203192065669544
402.3571178120617 - 2.2496996601181407
404.6905680224404 - 2.2969842736390227
407.02401823281906 - 2.344527893517334
409.3574684431977 - 2.391035487965931
411.69091865357643 - 2.437543082414527
414.0243688639551 - 2.4822376323611217
416.35781907433375 - 2.5279682077374312
418.69126928471246 - 2.569295675037453
421.0247194950912 - 2.5689231187914405
423.35816970546983 - 2.5592263336779935
425.6916199158485 - 2.5464214722754006
428.0250701262272 - 2.5369836935193817
430.35852033660586 - 2.5676919001648226
432.6919705469845 - 2.6235237234808553
435.02542075736324 - 2.6801325658691737
437.35887096774195 - 2.7362233955426345
439.6923211781206 - 2.771334710264365
442.02577138849927 - 2.781840421030362
444.359221598878 - 2.7928641445112157
446.69267180925664 - 2.802851842562355
449.0261220196353 - 2.8149115914729244
451.359572230014 - 2.8331874929617844
453.6930224403927 - 2.85249941988036
456.0264726507714 - 2.8702573086543626
458.35992286115004 - 2.8908642673600813
460.69337307152875 - 2.9143202959975167
463.0268232819074 - 2.9395893691369532
465.36027349228607 - 2.9651174486338188
467.6937237026648 - 2.989868509058398
470.0271739130435 - 3.0239437983504134
472.3606241234221 - 3.057760081285
474.6940743338008 - 3.093648415079017
477.0275245441795 - 3.1279827107284603
479.3609747545582 - 3.163871044522477
481.69442496493684 - 3.19846434652935
484.02787517531556 - 3.233057648536223
486.3613253856942 - 3.2689459823302394
488.69477559607293 - 3.276861629521948
491.0282258064516 - 3.253437507464776
493.3616760168303 - 3.2287183536204593
495.69512622720896 - 3.205035225205858
498.0285764375876 - 3.196633471879555
500.36202664796633 - 3.2257876403804233
502.695476858345 - 3.2572728660981505
505.0289270687237 - 3.2879810727435914
507.36237727910236 - 3.3163582221721737
509.6958274894811 - 3.33333909187389
512.0292776998597 - 3.3487659234310336
514.3627279102384 - 3.3644517613456055
516.6961781206171 - 3.3780655484007474
519.0296283309958 - 3.3831321256607403
521.3630785413745 - 3.3830185757721574
523.6965287517531 - 3.382905025883575
526.0299789621317 - 3.384863526854422
528.3634291725105 - 3.4173847780018645
530.6968793828892 - 3.4646693915227473
533.0303295932679 - 3.5122130114010583
535.3637798036466 - 3.55975663127937
537.6972300140253 - 3.5863207362059506
540.0306802244039 - 3.587243211747083
542.3641304347825 - 3.5871296618585
544.6975806451612 - 3.587016111969917
547.0310308555399 - 3.586902562081334
549.3644810659187 - 3.5919691393413267
551.6979312762974 - 3.593927640312174
554.0313814866761 - 3.597958192142451
556.3648316970547 - 3.6082048965510194
558.6982819074333 - 3.6477193193490387
561.031732117812 - 3.691636850223347
563.3651823281907 - 3.735036368382798
565.6986325385694 - 3.7773998611125346
568.0320827489481 - 3.8047409851114016
570.3655329593267 - 3.8302690646082675
572.6989831697055 - 3.8524300614585587
575.0324333800841 - 3.875886090095994
577.3658835904628 - 3.8871688199342773
579.6993338008415 - 3.8865372573308368
582.0327840112202 - 3.884610662940253
584.3662342215989 - 3.8857921448388133
586.6996844319775 - 3.8950028238176664
589.0331346423562 - 3.9187178588125304
591.3665848527348 - 3.943209912879681
593.7000350631135 - 3.9666659415171166
596.0334852734923 - 3.9849418430059766
598.366935483871 - 3.991303452053113
600.7003856942497 - 3.998960092887393
603.0338359046283 - 4.005839714649387
605.367286115007 - 4.013237349126239
607.7007363253856 - 4.02892318704081
610.0341865357643 - 4.0466810758148135
612.367636746143 - 4.063402939159101
614.7010869565217 - 4.080124802503389
617.0345371669005 - 4.084932373405952
619.3679873772791 - 4.084818823517369
621.7014375876578 - 4.084705273628787
624.0348877980364 - 4.084591723740203
626.3683380084151 - 4.098205510795346
628.7017882187938 - 4.12192054579021
631.0352384291725 - 4.146153593499932
633.3686886395512 - 4.168832603065081
635.7021388499298 - 4.183482415549938
638.0355890603086 - 4.183627872018784
640.3690392706872 - 4.1835143221302005
642.7024894810659 - 4.183400772241618
644.0813464235624 - 4.183333674580183
650 - 4.183

