LEARNING LOG 

Time: 02/03/2020 12:19:44
Learning run from scratch using 500000 timesteps.

Overall Agent Performance:
 |Step        |Win Rate    |Av. Reward  |Av. Sep.    |
 |-1          |0.05        |0.900591524 |-0.00981605 |
 |110076      |0.05        |1.014234204 |-0.10796301 |

Leading Performance:
 |Step        |Win Rate    |Av. Reward  |Av. Sep.    |
 |-1          |0.05        |0.839053090 |-0.00985236 |
 |110076      |0.0         |0.660261271 |-0.11855202 |

Trailing Performance:
 |Step        |Win Rate    |Av. Reward  |Av. Sep.    |
 |-1          |0.05        |0.962129959 |-0.00977973 |
 |110076      |0.1         |1.368207137 |-0.09737400 |

LEARNING LOG 

Time: 02/03/2020 12:19:44
Learning run from scratch using 500000 timesteps.

Overall Agent Performance:
 |Step        |Win Rate    |Av. Reward  |Av. Sep.    |
 |-1          |0.05        |0.900591524 |-0.00981605 |
 |110076      |0.05        |1.014234204 |-0.10796301 |
 |125681      |0.1         |1.803846994 |-0.01603139 |

Leading Performance:
 |Step        |Win Rate    |Av. Reward  |Av. Sep.    |
 |-1          |0.05        |0.839053090 |-0.00985236 |
 |110076      |0.0         |0.660261271 |-0.11855202 |
 |125681      |0.0         |0.735462938 |-0.01998072 |

Trailing Performance:
 |Step        |Win Rate    |Av. Reward  |Av. Sep.    |
 |-1          |0.05        |0.962129959 |-0.00977973 |
 |110076      |0.1         |1.368207137 |-0.09737400 |
 |125681      |0.2         |2.872231051 |-0.01208206 |

LEARNING LOG 

Time: 02/03/2020 12:19:44
Learning run from scratch using 500000 timesteps.

Overall Agent Performance:
 |Step        |Win Rate    |Av. Reward  |Av. Sep.    |
 |-1          |0.05        |0.900591524 |-0.00981605 |
 |110076      |0.05        |1.014234204 |-0.10796301 |
 |125681      |0.1         |1.803846994 |-0.01603139 |
 |141027      |0.425       |3.569349960 |-0.01010820 |

Leading Performance:
 |Step        |Win Rate    |Av. Reward  |Av. Sep.    |
 |-1          |0.05        |0.839053090 |-0.00985236 |
 |110076      |0.0         |0.660261271 |-0.11855202 |
 |125681      |0.0         |0.735462938 |-0.01998072 |
 |141027      |0.25        |2.334128646 |-0.01724269 |

Trailing Performance:
 |Step        |Win Rate    |Av. Reward  |Av. Sep.    |
 |-1          |0.05        |0.962129959 |-0.00977973 |
 |110076      |0.1         |1.368207137 |-0.09737400 |
 |125681      |0.2         |2.872231051 |-0.01208206 |
 |141027      |0.6         |4.804571274 |-0.00297371 |

LEARNING LOG 

Time: 02/03/2020 12:19:44
Learning run from scratch using 500000 timesteps.

Overall Agent Performance:
 |Step        |Win Rate    |Av. Reward  |Av. Sep.    |
 |-1          |0.05        |0.900591524 |-0.00981605 |
 |110076      |0.05        |1.014234204 |-0.10796301 |
 |125681      |0.1         |1.803846994 |-0.01603139 |
 |141027      |0.425       |3.569349960 |-0.01010820 |
 |184387      |0.775       |5.860502596 |0.004573770 |

Leading Performance:
 |Step        |Win Rate    |Av. Reward  |Av. Sep.    |
 |-1          |0.05        |0.839053090 |-0.00985236 |
 |110076      |0.0         |0.660261271 |-0.11855202 |
 |125681      |0.0         |0.735462938 |-0.01998072 |
 |141027      |0.25        |2.334128646 |-0.01724269 |
 |184387      |0.8         |5.611568327 |0.004941836 |

Trailing Performance:
 |Step        |Win Rate    |Av. Reward  |Av. Sep.    |
 |-1          |0.05        |0.962129959 |-0.00977973 |
 |110076      |0.1         |1.368207137 |-0.09737400 |
 |125681      |0.2         |2.872231051 |-0.01208206 |
 |141027      |0.6         |4.804571274 |-0.00297371 |
 |184387      |0.75        |6.109436864 |0.004205703 |

LEARNING LOG 

Time: 02/03/2020 12:19:44
Learning run from scratch using 500000 timesteps.

Overall Agent Performance:
 |Step        |Win Rate    |Av. Reward  |Av. Sep.    |
 |-1          |0.05        |0.900591524 |-0.00981605 |
 |110076      |0.05        |1.014234204 |-0.10796301 |
 |125681      |0.1         |1.803846994 |-0.01603139 |
 |141027      |0.425       |3.569349960 |-0.01010820 |
 |184387      |0.775       |5.860502596 |0.004573770 |
 |198894      |0.875       |7.508903853 |0.006400717 |

Leading Performance:
 |Step        |Win Rate    |Av. Reward  |Av. Sep.    |
 |-1          |0.05        |0.839053090 |-0.00985236 |
 |110076      |0.0         |0.660261271 |-0.11855202 |
 |125681      |0.0         |0.735462938 |-0.01998072 |
 |141027      |0.25        |2.334128646 |-0.01724269 |
 |184387      |0.8         |5.611568327 |0.004941836 |
 |198894      |0.95        |7.739958589 |0.007622244 |

Trailing Performance:
 |Step        |Win Rate    |Av. Reward  |Av. Sep.    |
 |-1          |0.05        |0.962129959 |-0.00977973 |
 |110076      |0.1         |1.368207137 |-0.09737400 |
 |125681      |0.2         |2.872231051 |-0.01208206 |
 |141027      |0.6         |4.804571274 |-0.00297371 |
 |184387      |0.75        |6.109436864 |0.004205703 |
 |198894      |0.8         |7.277849116 |0.005179191 |

LEARNING LOG 

Time: 02/03/2020 12:19:44
Learning run from 2 million step result using 500,000 timesteps.

Overall Agent Performance:
 |Step        |Win Rate    |Av. Reward  |Av. Sep.    |
 |-1          |0.05        |0.900591524 |-0.00981605 |
 |110076      |0.05        |1.014234204 |-0.10796301 |
 |125681      |0.1         |1.803846994 |-0.01603139 |
 |141027      |0.425       |3.569349960 |-0.01010820 |
 |184387      |0.775       |5.860502596 |0.004573770 |
 |198894      |0.875       |7.508903853 |0.006400717 |

Leading Performance:
 |Step        |Win Rate    |Av. Reward  |Av. Sep.    |
 |-1          |0.05        |0.839053090 |-0.00985236 |
 |110076      |0.0         |0.660261271 |-0.11855202 |
 |125681      |0.0         |0.735462938 |-0.01998072 |
 |141027      |0.25        |2.334128646 |-0.01724269 |
 |184387      |0.8         |5.611568327 |0.004941836 |
 |198894      |0.95        |7.739958589 |0.007622244 |

Trailing Performance:
 |Step        |Win Rate    |Av. Reward  |Av. Sep.    |
 |-1          |0.05        |0.962129959 |-0.00977973 |
 |110076      |0.1         |1.368207137 |-0.09737400 |
 |125681      |0.2         |2.872231051 |-0.01208206 |
 |141027      |0.6         |4.804571274 |-0.00297371 |
 |184387      |0.75        |6.109436864 |0.004205703 |
 |198894      |0.8         |7.277849116 |0.005179191 |

Total Wall time (mins) = 73.44097106533333
