Best mean rewards per run: 
0.68136743
0.69890067
0.9265915199999999
0.9561658199999999
0.6760882399999999

Average best mean reward over all runs: 
0.787822736

Variance of best mean reward: 
0.01586412658742114
