LEARNING LOG 

Time: 12/02/2020 17:37:52
Evaluation of model defined in msr_eval_45828

Sprint Distance Table:
 |Sprint Distance  |Reward           |Final Sep.       |Win?             |
 |650.0            |0.69012579659692 |-52.530604797353 |N                |
 |640.0            |0.69279579082776 |-51.639854417136 |N                |
 |630.0            |0.69222850224399 |-49.553956399463 |N                |
 |620.0            |0.69693651341651 |-46.971910840431 |N                |
 |610.0            |0.69772869354337 |-43.658800055010 |N                |
 |600.0            |0.70263153535524 |-41.010047287619 |N                |
 |590.0            |0.70195217979589 |-38.783964882302 |N                |
 |580.0            |0.70707747838180 |-36.036401437335 |N                |
 |570.0            |0.70723940631490 |-33.038200982894 |N                |
 |560.0            |0.71268381408665 |-30.141444766553 |N                |
 |550.0            |0.71843910727253 |-27.113407155767 |N                |
 |540.0            |0.72269598315684 |-21.069950005306 |N                |
 |530.0            |2.87536945342583 |1.87536945342583 |Y                |
 |520.0            |2.26769450615165 |1.26769450615165 |Y                |
 |510.0            |1.23195450000389 |0.23195450000389 |Y                |
 |500.0            |0.75378678730611 |-0.5534694473491 |N                |
 |490.0            |0.75573766891674 |-0.6083505323181 |N                |
 |480.0            |0.74995977225234 |-0.4604914649021 |N                |
 |470.0            |0.75063545334907 |-0.4536754169650 |N                |
 |460.0            |0.75128736209894 |-0.4151287105843 |N                |
 |450.0            |0.75191239760868 |-0.3458491134462 |N                |
 |440.0            |0.75250558842271 |-0.2488034070177 |N                |
 |430.0            |0.75305926168372 |-0.1296709179274 |N                |
 |420.0            |1.00263356102959 |0.00263356102959 |Y                |
 |410.0            |1.13657256383351 |0.13657256383351 |Y                |
 |400.0            |1.26009757420945 |0.26009757420945 |Y                |
 |390.0            |1.36297200190983 |0.36297200190983 |Y                |
 |380.0            |1.43778389926103 |0.43778389926103 |Y                |
 |370.0            |1.47971061171313 |0.47971061171313 |Y                |
 |360.0            |1.48593025586239 |0.48593025586239 |Y                |
 |350.0            |1.45525442344830 |0.45525442344830 |Y                |
 |340.0            |1.38817385218317 |0.38817385218317 |Y                |
 |330.0            |1.28739198721734 |0.28739198721734 |Y                |
 |320.0            |1.15882899161624 |0.15882899161624 |Y                |
 |310.0            |1.01260510712404 |0.01260510712404 |Y                |
 |300.0            |0.75046478464738 |-0.1373734206975 |N                |
 |290.0            |0.76275591605284 |-0.2090510947189 |N                |
 |280.0            |0.76179257273535 |-0.3374050088990 |N                |
 |270.0            |0.76069249118757 |-0.4373419613284 |N                |
 |260.0            |0.75945862227808 |-0.5019970226685 |N                |
 |250.0            |0.75809171297319 |-0.5273597422570 |N                |

Win rate = 0.36585365853658536
Average separation value = -11.46515943900652
