LEARNING LOG 

Time: 02/02/2020 19:39:53
Evaluation of model defined in msr_eval_1835

Sprint Distance Table:
 |Sprint Distance  |Reward           |Final Sep.       |Win?             |
 |650.0            |9.79707276732347 |8.79707276732347 |Y                |
 |640.0            |10.1655956250407 |9.16559562504073 |Y                |
 |630.0            |9.91381455955024 |8.91381455955024 |Y                |
 |620.0            |9.62709661557653 |8.62709661557653 |Y                |
 |610.0            |9.92202761727708 |8.92202761727708 |Y                |
 |600.0            |9.28489068342412 |8.28489068342412 |Y                |
 |590.0            |9.91410991954433 |8.91410991954433 |Y                |
 |580.0            |2.81815340099490 |1.81815340099490 |Y                |
 |570.0            |1.18247319704767 |0.18247319704767 |Y                |
 |560.0            |2.27722172766948 |1.27722172766948 |Y                |
 |550.0            |2.19404210983486 |1.19404210983486 |Y                |
 |540.0            |1.99325295827839 |0.99325295827839 |Y                |
 |530.0            |1.80807486218543 |0.80807486218543 |Y                |
 |520.0            |0.74778032615071 |-2.3491908791992 |N                |
 |510.0            |0.75475350140094 |-1.0842506217688 |N                |
 |500.0            |4.57588067881010 |3.57588067881010 |Y                |
 |490.0            |9.06399003785952 |8.06399003785952 |Y                |
 |480.0            |7.89483549256692 |6.89483549256692 |Y                |
 |470.0            |3.40299153124590 |2.40299153124590 |Y                |
 |460.0            |6.37824089240803 |5.37824089240803 |Y                |
 |450.0            |5.50205022633247 |4.50205022633247 |Y                |
 |440.0            |6.24779718117247 |5.24779718117247 |Y                |
 |430.0            |5.68732666150310 |4.68732666150310 |Y                |
 |420.0            |4.81697597823438 |3.81697597823438 |Y                |
 |410.0            |3.84090700339777 |2.84090700339777 |Y                |
 |400.0            |2.76089098513216 |1.76089098513216 |Y                |
 |390.0            |3.79930236604286 |2.79930236604286 |Y                |
 |380.0            |2.80046363275107 |1.80046363275107 |Y                |
 |370.0            |3.28356865794376 |2.28356865794376 |Y                |
 |360.0            |2.55845989066222 |1.55845989066222 |Y                |
 |350.0            |3.24363492192128 |2.24363492192128 |Y                |
 |340.0            |3.82838224086469 |2.82838224086469 |Y                |
 |330.0            |3.29261575067744 |2.29261575067744 |Y                |
 |320.0            |2.70707734385757 |1.70707734385757 |Y                |
 |310.0            |3.23659242216024 |2.23659242216024 |Y                |
 |300.0            |3.21083580610422 |2.21083580610422 |Y                |
 |290.0            |2.89401489909096 |1.89401489909096 |Y                |
 |280.0            |2.15706971281701 |1.15706971281701 |Y                |
 |270.0            |2.17345996823098 |1.17345996823098 |Y                |
 |260.0            |0.69186530388830 |-24.026534518569 |N                |
 |250.0            |0.67233246794042 |-29.623315644916 |N                |

Win rate = 0.9024390243902439
Average separation value = 2.101753625880004
LEARNING LOG 

Time: 03/02/2020 14:45:09
Evaluation of model defined in msr_eval_1835

Sprint Distance Table:
 |Sprint Distance  |Reward           |Final Sep.       |Win?             |
 |650.0            |9.79707276732347 |8.79707276732347 |Y                |
 |640.0            |10.1655956250407 |9.16559562504073 |Y                |
 |630.0            |9.91381455955024 |8.91381455955024 |Y                |
 |620.0            |9.62709661557653 |8.62709661557653 |Y                |
 |610.0            |9.92202761727708 |8.92202761727708 |Y                |
 |600.0            |9.28489068342412 |8.28489068342412 |Y                |
 |590.0            |9.91410991954433 |8.91410991954433 |Y                |
 |580.0            |2.81815340099490 |1.81815340099490 |Y                |
 |570.0            |1.18247319704767 |0.18247319704767 |Y                |
 |560.0            |2.27722172766948 |1.27722172766948 |Y                |
 |550.0            |2.19404210983486 |1.19404210983486 |Y                |
 |540.0            |1.99325295827839 |0.99325295827839 |Y                |
 |530.0            |1.80807486218543 |0.80807486218543 |Y                |
 |520.0            |0.74778032615071 |-2.3491908791992 |N                |
 |510.0            |0.75475350140094 |-1.0842506217688 |N                |
 |500.0            |4.57588067881010 |3.57588067881010 |Y                |
 |490.0            |9.06399003785952 |8.06399003785952 |Y                |
 |480.0            |7.89483549256692 |6.89483549256692 |Y                |
 |470.0            |3.40299153124590 |2.40299153124590 |Y                |
 |460.0            |6.37824089240803 |5.37824089240803 |Y                |
 |450.0            |5.50205022633247 |4.50205022633247 |Y                |
 |440.0            |6.24779718117247 |5.24779718117247 |Y                |
 |430.0            |5.68732666150310 |4.68732666150310 |Y                |
 |420.0            |4.81697597823438 |3.81697597823438 |Y                |
 |410.0            |3.84090700339777 |2.84090700339777 |Y                |
 |400.0            |2.76089098513216 |1.76089098513216 |Y                |
 |390.0            |3.79930236604286 |2.79930236604286 |Y                |
 |380.0            |2.80046363275107 |1.80046363275107 |Y                |
 |370.0            |3.28356865794376 |2.28356865794376 |Y                |
 |360.0            |2.55845989066222 |1.55845989066222 |Y                |
 |350.0            |3.24363492192128 |2.24363492192128 |Y                |
 |340.0            |3.82838224086469 |2.82838224086469 |Y                |
 |330.0            |3.29261575067744 |2.29261575067744 |Y                |
 |320.0            |2.70707734385757 |1.70707734385757 |Y                |
 |310.0            |3.23659242216024 |2.23659242216024 |Y                |
 |300.0            |3.21083580610422 |2.21083580610422 |Y                |
 |290.0            |2.89401489909096 |1.89401489909096 |Y                |
 |280.0            |2.15706971281701 |1.15706971281701 |Y                |
 |270.0            |2.17345996823098 |1.17345996823098 |Y                |
 |260.0            |0.69186530388830 |-24.026534518569 |N                |
 |250.0            |0.67233246794042 |-29.623315644916 |N                |

Win rate = 0.9024390243902439
Average separation value = 2.101753625880004
