LEARNING LOG 

Time: 05/03/2020 23:08:13
Learning run from scratch using 500000 timesteps.

Overall Agent Performance:
 |Step        |Win Rate    |Av. Reward  |Av. Sep.    |
 |-1          |0.0         |0.733994346 |-0.02175426 |
 |127431      |0.0         |0.740745648 |-0.01288795 |

Leading Performance:
 |Step        |Win Rate    |Av. Reward  |Av. Sep.    |
 |-1          |0.0         |0.729975144 |-0.02702881 |
 |127431      |0.0         |0.740640322 |-0.01300131 |

Trailing Performance:
 |Step        |Win Rate    |Av. Reward  |Av. Sep.    |
 |-1          |0.0         |0.738013547 |-0.01647971 |
 |127431      |0.0         |0.740850974 |-0.01277459 |

LEARNING LOG 

Time: 05/03/2020 23:08:13
Learning run from scratch using 500000 timesteps.

Overall Agent Performance:
 |Step        |Win Rate    |Av. Reward  |Av. Sep.    |
 |-1          |0.0         |0.733994346 |-0.02175426 |
 |127431      |0.0         |0.740745648 |-0.01288795 |
 |144371      |0.0         |0.748050897 |-0.00343039 |

Leading Performance:
 |Step        |Win Rate    |Av. Reward  |Av. Sep.    |
 |-1          |0.0         |0.729975144 |-0.02702881 |
 |127431      |0.0         |0.740640322 |-0.01300131 |
 |144371      |0.0         |0.747859224 |-0.00364337 |

Trailing Performance:
 |Step        |Win Rate    |Av. Reward  |Av. Sep.    |
 |-1          |0.0         |0.738013547 |-0.01647971 |
 |127431      |0.0         |0.740850974 |-0.01277459 |
 |144371      |0.0         |0.748242569 |-0.00321742 |

LEARNING LOG 

Time: 05/03/2020 23:08:13
Learning run from scratch using 500000 timesteps.

Overall Agent Performance:
 |Step        |Win Rate    |Av. Reward  |Av. Sep.    |
 |-1          |0.0         |0.733994346 |-0.02175426 |
 |127431      |0.0         |0.740745648 |-0.01288795 |
 |144371      |0.0         |0.748050897 |-0.00343039 |
 |175741      |0.0         |0.748196283 |-0.00320028 |

Leading Performance:
 |Step        |Win Rate    |Av. Reward  |Av. Sep.    |
 |-1          |0.0         |0.729975144 |-0.02702881 |
 |127431      |0.0         |0.740640322 |-0.01300131 |
 |144371      |0.0         |0.747859224 |-0.00364337 |
 |175741      |0.0         |0.748457661 |-0.00277055 |

Trailing Performance:
 |Step        |Win Rate    |Av. Reward  |Av. Sep.    |
 |-1          |0.0         |0.738013547 |-0.01647971 |
 |127431      |0.0         |0.740850974 |-0.01277459 |
 |144371      |0.0         |0.748242569 |-0.00321742 |
 |175741      |0.0         |0.747934905 |-0.00363001 |

LEARNING LOG 

Time: 05/03/2020 23:08:13
Learning run from scratch using 500000 timesteps.

Overall Agent Performance:
 |Step        |Win Rate    |Av. Reward  |Av. Sep.    |
 |-1          |0.0         |0.733994346 |-0.02175426 |
 |127431      |0.0         |0.740745648 |-0.01288795 |
 |144371      |0.0         |0.748050897 |-0.00343039 |
 |175741      |0.0         |0.748196283 |-0.00320028 |
 |403319      |0.04        |0.902450787 |-0.01973022 |

Leading Performance:
 |Step        |Win Rate    |Av. Reward  |Av. Sep.    |
 |-1          |0.0         |0.729975144 |-0.02702881 |
 |127431      |0.0         |0.740640322 |-0.01300131 |
 |144371      |0.0         |0.747859224 |-0.00364337 |
 |175741      |0.0         |0.748457661 |-0.00277055 |
 |403319      |0.0         |0.732545730 |-0.02365206 |

Trailing Performance:
 |Step        |Win Rate    |Av. Reward  |Av. Sep.    |
 |-1          |0.0         |0.738013547 |-0.01647971 |
 |127431      |0.0         |0.740850974 |-0.01277459 |
 |144371      |0.0         |0.748242569 |-0.00321742 |
 |175741      |0.0         |0.747934905 |-0.00363001 |
 |403319      |0.08        |1.072355843 |-0.01580839 |

LEARNING LOG 

Time: 05/03/2020 23:08:13
Learning run from scratch using 500000 timesteps.

Overall Agent Performance:
 |Step        |Win Rate    |Av. Reward  |Av. Sep.    |
 |-1          |0.0         |0.733994346 |-0.02175426 |
 |127431      |0.0         |0.740745648 |-0.01288795 |
 |144371      |0.0         |0.748050897 |-0.00343039 |
 |175741      |0.0         |0.748196283 |-0.00320028 |
 |403319      |0.04        |0.902450787 |-0.01973022 |

Leading Performance:
 |Step        |Win Rate    |Av. Reward  |Av. Sep.    |
 |-1          |0.0         |0.729975144 |-0.02702881 |
 |127431      |0.0         |0.740640322 |-0.01300131 |
 |144371      |0.0         |0.747859224 |-0.00364337 |
 |175741      |0.0         |0.748457661 |-0.00277055 |
 |403319      |0.0         |0.732545730 |-0.02365206 |

Trailing Performance:
 |Step        |Win Rate    |Av. Reward  |Av. Sep.    |
 |-1          |0.0         |0.738013547 |-0.01647971 |
 |127431      |0.0         |0.740850974 |-0.01277459 |
 |144371      |0.0         |0.748242569 |-0.00321742 |
 |175741      |0.0         |0.747934905 |-0.00363001 |
 |403319      |0.08        |1.072355843 |-0.01580839 |

Total Wall time (mins) = 103.25276249438335
