0.26045114693669164 msr_callback_999
0.2971010054122379 msr_callback_1999
0.5580820707166775 msr_callback_8999
0.603769562991122 msr_callback_7999
0.6270566246180025 msr_callback_4999
0.65650024983562 msr_callback_3999
0.6592073103650894 msr_callback_11999
0.6726934118730942 msr_callback_2999
0.6756317246262098 msr_callback_15999
0.7175380436229458 msr_callback_17999
0.7259654425058443 msr_callback_16999
0.7481003507049451 msr_callback_5999
0.7515346740551134 msr_callback_19999
0.7528901753302091 msr_callback_10999
1.15235023109733 msr_callback_6999
1.15235023109733 msr_callback_21999
1.15235023109733 msr_callback_23999
1.15235023109733 msr_callback_22999
1.15235023109733 msr_callback_20999
1.15235023109733 msr_callback_18999
1.15235023109733 msr_callback_14999
1.15235023109733 msr_callback_13999
1.15235023109733 msr_callback_12999
1.15235023109733 msr_callback_24999
1.15235023109733 msr_callback_9999
