Sprint Distance - Rewards: 
650.0 - 8.96871572490727
639.7435897435897 - 9.009414797832733
629.4871794871794 - 8.983610870110283
619.2307692307693 - 8.773758860047565
608.974358974359 - 8.545732581999687
598.7179487179487 - 8.270247681454975
588.4615384615385 - 7.87917628764626
578.2051282051282 - 7.517933652062084
567.948717948718 - 7.192827651439416
557.6923076923076 - 6.7770216116105075
547.4358974358975 - 6.428018877919385
537.1794871794872 - 6.0842983907498365
526.9230769230769 - 5.745770112168543
516.6666666666666 - 5.292337994306195
506.4102564102564 - 4.952527565730861
496.15384615384613 - 4.621199969816303
485.8974358974359 - 4.292314869409097
475.64102564102564 - 3.820637225702967
465.38461538461536 - 3.5471104217100446
455.1282051282051 - 3.1377396185479256
444.87179487179486 - 2.787117876082334
434.6153846153846 - 2.537474163380466
424.35897435897436 - 2.112076847137814
414.1025641025641 - 1.8711699166436802
403.8461538461538 - 1.6842627749932717
393.5897435897436 - 1.378283355340045
383.3333333333333 - 1.2804987894452324
373.07692307692304 - 1.1249106007904857
362.8205128205128 - 1.0113399149878433
352.56410256410254 - 1.0503096978120539
342.30769230769226 - 1.0668055177063707
332.05128205128204 - 1.1451855528905526
321.79487179487177 - 1.1651024980977809
311.5384615384615 - 1.2738485792167467
301.28205128205127 - 1.3312343847859438
291.025641025641 - 1.3956537553769977
280.7692307692307 - 1.443750535475374
270.5128205128205 - 1.4132338109353668
260.2564102564102 - 1.3346532451181474
250.0 - 1.247375564017716

Sprint Distance - Separation values: 
650.0 - 7.96871572490727
639.7435897435897 - 8.009414797832733
629.4871794871794 - 7.983610870110283
619.2307692307693 - 7.773758860047565
608.974358974359 - 7.545732581999687
598.7179487179487 - 7.2702476814549755
588.4615384615385 - 6.87917628764626
578.2051282051282 - 6.517933652062084
567.948717948718 - 6.192827651439416
557.6923076923076 - 5.7770216116105075
547.4358974358975 - 5.428018877919385
537.1794871794872 - 5.0842983907498365
526.9230769230769 - 4.745770112168543
516.6666666666666 - 4.292337994306195
506.4102564102564 - 3.952527565730861
496.15384615384613 - 3.6211999698163027
485.8974358974359 - 3.292314869409097
475.64102564102564 - 2.820637225702967
465.38461538461536 - 2.5471104217100446
455.1282051282051 - 2.1377396185479256
444.87179487179486 - 1.787117876082334
434.6153846153846 - 1.537474163380466
424.35897435897436 - 1.1120768471378142
414.1025641025641 - 0.8711699166436802
403.8461538461538 - 0.6842627749932717
393.5897435897436 - 0.3782833553400451
383.3333333333333 - 0.28049878944523243
373.07692307692304 - 0.12491060079048566
362.8205128205128 - 0.011339914987843258
352.56410256410254 - 0.050309697812053855
342.30769230769226 - 0.06680551770637067
332.05128205128204 - 0.14518555289055257
321.79487179487177 - 0.16510249809778088
311.5384615384615 - 0.27384857921674666
301.28205128205127 - 0.3312343847859438
291.025641025641 - 0.39565375537699765
280.7692307692307 - 0.4437505354753739
270.5128205128205 - 0.4132338109353668
260.2564102564102 - 0.3346532451181474
250.0 - 0.247375564017716
