LEARNING LOG 

Time: 12/02/2020 16:57:18
Evaluation of model defined in msr_eval_48251

Sprint Distance Table:
 |Sprint Distance  |Reward           |Final Sep.       |Win?             |
 |650.0            |0.74450405618094 |-5.3737188161619 |N                |
 |640.0            |0.72845702239838 |-21.196035213311 |N                |
 |630.0            |0.71772084254036 |-28.133010724071 |N                |
 |620.0            |0.71246529632904 |-34.131285330167 |N                |
 |610.0            |0.70807465067404 |-35.241284575454 |N                |
 |600.0            |0.70791009535030 |-36.784984308143 |N                |
 |590.0            |0.68953379629872 |-48.551676212357 |N                |
 |580.0            |0.69074353255588 |-48.666641249758 |N                |
 |570.0            |0.68669663072278 |-48.649444625650 |N                |
 |560.0            |0.68724899958239 |-49.131614596248 |N                |
 |550.0            |0.68873919625129 |-48.892306045974 |N                |
 |540.0            |0.68452859815244 |-48.550048480476 |N                |
 |530.0            |0.68581725221569 |-48.332460532715 |N                |
 |520.0            |0.68161750872254 |-47.641829067866 |N                |
 |510.0            |0.68451997233797 |-46.193680632496 |N                |
 |500.0            |0.68627942937985 |-45.532258530463 |N                |
 |490.0            |0.68155096428014 |-44.748449518390 |N                |
 |480.0            |0.68317785255470 |-44.044257718354 |N                |
 |470.0            |0.68482515936264 |-43.315426552470 |N                |
 |460.0            |0.68744522465185 |-41.977750370997 |N                |
 |450.0            |0.68191450195021 |-41.063621277232 |N                |
 |440.0            |0.68350476399148 |-40.218590891961 |N                |
 |430.0            |0.68394904608180 |-40.015174793624 |N                |
 |420.0            |0.68538734063638 |-39.207838359236 |N                |
 |410.0            |0.68551040403946 |-39.098943661329 |N                |
 |400.0            |0.68973018398683 |-36.747402168813 |N                |
 |390.0            |0.68400622500947 |-34.946490690312 |N                |
 |380.0            |0.68669492876484 |-33.312193177432 |N                |
 |370.0            |0.68656545900348 |-33.079936838956 |N                |
 |360.0            |0.68920879507630 |-31.451060719575 |N                |
 |350.0            |0.69184226965828 |-29.836068014239 |N                |
 |340.0            |0.69150036586873 |-29.580343487776 |N                |
 |330.0            |0.69406614920330 |-27.974174288135 |N                |
 |320.0            |0.69367120690024 |-27.640704413368 |N                |
 |310.0            |0.69615849435991 |-26.044629033987 |N                |
 |300.0            |0.69543326623845 |-25.742625538494 |N                |
 |290.0            |0.69794519947255 |-24.111104142712 |N                |
 |280.0            |0.70026890349067 |-22.561261155421 |N                |
 |270.0            |0.69937569382588 |-22.179107527457 |N                |
 |260.0            |0.70153894135531 |-20.661336502176 |N                |
 |250.0            |0.70678656973126 |-18.124108160676 |N                |

Win rate = 0.0
Average separation value = -35.57767994986472
