Sprint Distance - Rewards: 
650 - -0.17694025441562644
600 - 0.2645080396797539
550 - 0.25043291740291806
500 - -0.23854673394055226
450 - -0.32414056302980043
400 - 0.18120871893256663
350 - 0.4134901021261612
300 - -0.0748872703335337
250 - -0.49100185153849907

Sprint Distance - Separation values: 
650 - -0.17694025441562644
600 - 0.2645080396797539
550 - 0.25043291740291806
500 - -0.23854673394055226
450 - -0.32414056302980043
400 - 0.18120871893256663
350 - 0.4134901021261612
300 - -0.0748872703335337
250 - -0.49100185153849907
