LEARNING LOG 

Time: 02/02/2020 19:39:08
Evaluation of model defined in msr_eval_45558

Sprint Distance Table:
 |Sprint Distance  |Reward           |Final Sep.       |Win?             |
 |650.0            |3.95678924057267 |2.95678924057267 |Y                |
 |640.0            |4.60987988576266 |3.60987988576266 |Y                |
 |630.0            |5.00080240038073 |4.00080240038073 |Y                |
 |620.0            |5.51980213125909 |4.51980213125909 |Y                |
 |610.0            |5.82048328861162 |4.82048328861162 |Y                |
 |600.0            |6.08457645076737 |5.08457645076737 |Y                |
 |590.0            |6.41141740091040 |5.41141740091040 |Y                |
 |580.0            |6.58258073023580 |5.58258073023580 |Y                |
 |570.0            |6.71586292474660 |5.71586292474660 |Y                |
 |560.0            |6.84364130282278 |5.84364130282278 |Y                |
 |550.0            |6.87985312110004 |5.87985312110004 |Y                |
 |540.0            |6.87606661233621 |5.87606661233621 |Y                |
 |530.0            |6.83147104176714 |5.83147104176714 |Y                |
 |520.0            |6.68603956479091 |5.68603956479091 |Y                |
 |510.0            |6.53521319706499 |5.53521319706499 |Y                |
 |500.0            |6.33994981291323 |5.33994981291323 |Y                |
 |490.0            |6.09899864125702 |5.09899864125702 |Y                |
 |480.0            |5.81102814541350 |4.81102814541350 |Y                |
 |470.0            |5.47463883613863 |4.47463883613863 |Y                |
 |460.0            |5.08837850571751 |4.08837850571751 |Y                |
 |450.0            |4.65075899295675 |3.65075899295675 |Y                |
 |440.0            |4.16027324574872 |3.16027324574872 |Y                |
 |430.0            |3.32212031604569 |2.32212031604569 |Y                |
 |420.0            |2.69289883117517 |1.69289883117517 |Y                |
 |410.0            |2.00576270914473 |1.00576270914473 |Y                |
 |400.0            |1.26198408614595 |0.26198408614595 |Y                |
 |390.0            |0.75017406406650 |-0.5143349369135 |N                |
 |380.0            |0.74988016604884 |-1.2762812837728 |N                |
 |370.0            |0.74950639732888 |-2.0088870583410 |N                |
 |360.0            |0.74904880551843 |-2.7103473420241 |N                |
 |350.0            |0.74850198462545 |-3.3798700725519 |N                |
 |340.0            |0.74785998511998 |-4.0167671409122 |N                |
 |330.0            |0.74711632265983 |-4.6204214932972 |N                |
 |320.0            |0.74626395334260 |-5.1902920953699 |N                |
 |310.0            |0.74529526961943 |-5.7259124172577 |N                |
 |300.0            |0.74420212905114 |-6.2268793294307 |N                |
 |290.0            |0.74297592579904 |-6.6928324898497 |N                |
 |280.0            |0.74160771443124 |-7.1234255448922 |N                |
 |270.0            |0.74008839576972 |-7.5182914762538 |N                |
 |260.0            |0.73840897570998 |-7.8770051001026 |N                |
 |250.0            |0.73656091093687 |-8.1990459603190 |N                |

Win rate = 0.6341463414634146
Average separation value = 0.9556262847438269
LEARNING LOG 

Time: 03/02/2020 14:44:20
Evaluation of model defined in msr_eval_45558

Sprint Distance Table:
 |Sprint Distance  |Reward           |Final Sep.       |Win?             |
 |650.0            |3.95678924057267 |2.95678924057267 |Y                |
 |640.0            |4.60987988576266 |3.60987988576266 |Y                |
 |630.0            |5.00080240038073 |4.00080240038073 |Y                |
 |620.0            |5.51980213125909 |4.51980213125909 |Y                |
 |610.0            |5.82048328861162 |4.82048328861162 |Y                |
 |600.0            |6.08457645076737 |5.08457645076737 |Y                |
 |590.0            |6.41141740091040 |5.41141740091040 |Y                |
 |580.0            |6.58258073023580 |5.58258073023580 |Y                |
 |570.0            |6.71586292474660 |5.71586292474660 |Y                |
 |560.0            |6.84364130282278 |5.84364130282278 |Y                |
 |550.0            |6.87985312110004 |5.87985312110004 |Y                |
 |540.0            |6.87606661233621 |5.87606661233621 |Y                |
 |530.0            |6.83147104176714 |5.83147104176714 |Y                |
 |520.0            |6.68603956479091 |5.68603956479091 |Y                |
 |510.0            |6.53521319706499 |5.53521319706499 |Y                |
 |500.0            |6.33994981291323 |5.33994981291323 |Y                |
 |490.0            |6.09899864125702 |5.09899864125702 |Y                |
 |480.0            |5.81102814541350 |4.81102814541350 |Y                |
 |470.0            |5.47463883613863 |4.47463883613863 |Y                |
 |460.0            |5.08837850571751 |4.08837850571751 |Y                |
 |450.0            |4.65075899295675 |3.65075899295675 |Y                |
 |440.0            |4.16027324574872 |3.16027324574872 |Y                |
 |430.0            |3.32212031604569 |2.32212031604569 |Y                |
 |420.0            |2.69289883117517 |1.69289883117517 |Y                |
 |410.0            |2.00576270914473 |1.00576270914473 |Y                |
 |400.0            |1.26198408614595 |0.26198408614595 |Y                |
 |390.0            |0.75017406406650 |-0.5143349369135 |N                |
 |380.0            |0.74988016604884 |-1.2762812837728 |N                |
 |370.0            |0.74950639732888 |-2.0088870583410 |N                |
 |360.0            |0.74904880551843 |-2.7103473420241 |N                |
 |350.0            |0.74850198462545 |-3.3798700725519 |N                |
 |340.0            |0.74785998511998 |-4.0167671409122 |N                |
 |330.0            |0.74711632265983 |-4.6204214932972 |N                |
 |320.0            |0.74626395334260 |-5.1902920953699 |N                |
 |310.0            |0.74529526961943 |-5.7259124172577 |N                |
 |300.0            |0.74420212905114 |-6.2268793294307 |N                |
 |290.0            |0.74297592579904 |-6.6928324898497 |N                |
 |280.0            |0.74160771443124 |-7.1234255448922 |N                |
 |270.0            |0.74008839576972 |-7.5182914762538 |N                |
 |260.0            |0.73840897570998 |-7.8770051001026 |N                |
 |250.0            |0.73656091093687 |-8.1990459603190 |N                |

Win rate = 0.6341463414634146
Average separation value = 0.9556262847438269
