Sprint Distance - Rewards: 
650 - 0.7520376124747464
600 - 1.3467611210911627
550 - 1.1785210339351124
500 - 0.7534218708755659
450 - 0.7529433735662378
400 - 1.267148469348399
350 - 1.4235895858831782
300 - 0.7501664587626317
250 - 0.7523651900469119

Sprint Distance - Separation values: 
650 - -0.15842690637509804
600 - 0.34676112109116275
550 - 0.17852103393511243
500 - -0.32872908944932533
450 - -0.31020276703941363
400 - 0.267148469348399
350 - 0.4235895858831782
300 - -0.16979062426889868
250 - -0.5305500175342104
