LEARNING LOG 

Time: 02/02/2020 19:47:12
Evaluation of model defined in msr_eval_119849

Sprint Distance Table:
 |Sprint Distance  |Reward           |Final Sep.       |Win?             |
 |650.0            |0.75129602936272 |-1.7477759025500 |N                |
 |640.0            |0.75325566421451 |-1.2343882247224 |N                |
 |630.0            |0.75029755117252 |-0.3733418777691 |N                |
 |620.0            |1.18908284279291 |0.18908284279291 |Y                |
 |610.0            |1.82362433980472 |0.82362433980472 |Y                |
 |600.0            |2.71195483145481 |1.71195483145481 |Y                |
 |590.0            |3.10156065842488 |2.10156065842488 |Y                |
 |580.0            |3.60838272538774 |2.60838272538774 |Y                |
 |570.0            |4.31027255717151 |3.31027255717151 |Y                |
 |560.0            |4.67572154280060 |3.67572154280060 |Y                |
 |550.0            |5.05275831248206 |4.05275831248206 |Y                |
 |540.0            |5.39091731182441 |4.39091731182441 |Y                |
 |530.0            |5.85006038284984 |4.85006038284984 |Y                |
 |520.0            |6.09583866813545 |5.09583866813545 |Y                |
 |510.0            |6.35119074795682 |5.35119074795682 |Y                |
 |500.0            |6.50365278121978 |5.50365278121978 |Y                |
 |490.0            |6.62237406371707 |5.62237406371707 |Y                |
 |480.0            |6.73073743047541 |5.73073743047541 |Y                |
 |470.0            |6.87930707349130 |5.87930707349130 |Y                |
 |460.0            |6.87301922320602 |5.87301922320602 |Y                |
 |450.0            |6.80239432691939 |5.80239432691939 |Y                |
 |440.0            |6.74037368912991 |5.74037368912991 |Y                |
 |430.0            |6.54966343745718 |5.54966343745718 |Y                |
 |420.0            |6.35833386908177 |5.35833386908177 |Y                |
 |410.0            |6.11816577455283 |5.11816577455283 |Y                |
 |400.0            |5.71487693812241 |4.71487693812241 |Y                |
 |390.0            |5.46592143945883 |4.46592143945883 |Y                |
 |380.0            |5.09896107491238 |4.09896107491238 |Y                |
 |370.0            |4.75376931266941 |3.75376931266941 |Y                |
 |360.0            |4.32811450846816 |3.32811450846816 |Y                |
 |350.0            |3.87820200070541 |2.87820200070541 |Y                |
 |340.0            |3.37206655243494 |2.37206655243494 |Y                |
 |330.0            |2.80830063692337 |1.80830063692337 |Y                |
 |320.0            |2.50439317144753 |1.50439317144753 |Y                |
 |310.0            |1.85203370761996 |0.85203370761996 |Y                |
 |300.0            |1.14413127680165 |0.14413127680165 |Y                |
 |290.0            |0.75872371343346 |-0.5859007608434 |N                |
 |280.0            |0.75719214536413 |-1.2893129548116 |N                |
 |270.0            |0.75550988523615 |-1.9525586650735 |N                |
 |260.0            |0.75367198709467 |-2.5734710490298 |N                |
 |250.0            |0.75167275163623 |-3.1508042016661 |N                |

Win rate = 0.8048780487804879
Average separation value = 2.7159171603276686
LEARNING LOG 

Time: 03/02/2020 14:49:58
Evaluation of model defined in msr_eval_119849

Sprint Distance Table:
 |Sprint Distance  |Reward           |Final Sep.       |Win?             |
 |650.0            |0.75129602936272 |-1.7477759025500 |N                |
 |640.0            |0.75325566421451 |-1.2343882247224 |N                |
 |630.0            |0.75029755117252 |-0.3733418777691 |N                |
 |620.0            |1.18908284279291 |0.18908284279291 |Y                |
 |610.0            |1.82362433980472 |0.82362433980472 |Y                |
 |600.0            |2.71195483145481 |1.71195483145481 |Y                |
 |590.0            |3.10156065842488 |2.10156065842488 |Y                |
 |580.0            |3.60838272538774 |2.60838272538774 |Y                |
 |570.0            |4.31027255717151 |3.31027255717151 |Y                |
 |560.0            |4.67572154280060 |3.67572154280060 |Y                |
 |550.0            |5.05275831248206 |4.05275831248206 |Y                |
 |540.0            |5.39091731182441 |4.39091731182441 |Y                |
 |530.0            |5.85006038284984 |4.85006038284984 |Y                |
 |520.0            |6.09583866813545 |5.09583866813545 |Y                |
 |510.0            |6.35119074795682 |5.35119074795682 |Y                |
 |500.0            |6.50365278121978 |5.50365278121978 |Y                |
 |490.0            |6.62237406371707 |5.62237406371707 |Y                |
 |480.0            |6.73073743047541 |5.73073743047541 |Y                |
 |470.0            |6.87930707349130 |5.87930707349130 |Y                |
 |460.0            |6.87301922320602 |5.87301922320602 |Y                |
 |450.0            |6.80239432691939 |5.80239432691939 |Y                |
 |440.0            |6.74037368912991 |5.74037368912991 |Y                |
 |430.0            |6.54966343745718 |5.54966343745718 |Y                |
 |420.0            |6.35833386908177 |5.35833386908177 |Y                |
 |410.0            |6.11816577455283 |5.11816577455283 |Y                |
 |400.0            |5.71487693812241 |4.71487693812241 |Y                |
 |390.0            |5.46592143945883 |4.46592143945883 |Y                |
 |380.0            |5.09896107491238 |4.09896107491238 |Y                |
 |370.0            |4.75376931266941 |3.75376931266941 |Y                |
 |360.0            |4.32811450846816 |3.32811450846816 |Y                |
 |350.0            |3.87820200070541 |2.87820200070541 |Y                |
 |340.0            |3.37206655243494 |2.37206655243494 |Y                |
 |330.0            |2.80830063692337 |1.80830063692337 |Y                |
 |320.0            |2.50439317144753 |1.50439317144753 |Y                |
 |310.0            |1.85203370761996 |0.85203370761996 |Y                |
 |300.0            |1.14413127680165 |0.14413127680165 |Y                |
 |290.0            |0.75872371343346 |-0.5859007608434 |N                |
 |280.0            |0.75719214536413 |-1.2893129548116 |N                |
 |270.0            |0.75550988523615 |-1.9525586650735 |N                |
 |260.0            |0.75367198709467 |-2.5734710490298 |N                |
 |250.0            |0.75167275163623 |-3.1508042016661 |N                |

Win rate = 0.8048780487804879
Average separation value = 2.7159171603276686
