LEARNING LOG 

Time: 12/02/2020 17:37:13
Evaluation of model defined in msr_eval_42698

Sprint Distance Table:
 |Sprint Distance  |Reward           |Final Sep.       |Win?             |
 |650.0            |0.67889220091911 |-62.266388454194 |N                |
 |640.0            |0.68287696026277 |-60.103923231396 |N                |
 |630.0            |0.68385314816804 |-56.589251798981 |N                |
 |620.0            |0.68802870293721 |-54.335697242200 |N                |
 |610.0            |0.68738651308504 |-52.070433887090 |N                |
 |600.0            |0.69308210853921 |-48.649557612431 |N                |
 |590.0            |0.69252051549809 |-46.203487103911 |N                |
 |580.0            |0.70010441472456 |-41.428706116699 |N                |
 |570.0            |0.70395155203223 |-35.536306869109 |N                |
 |560.0            |0.71578887908506 |-27.820703590271 |N                |
 |550.0            |1.33456828857811 |0.33456828857811 |Y                |
 |540.0            |6.14762613107848 |5.14762613107848 |Y                |
 |530.0            |5.99080539723001 |4.99080539723001 |Y                |
 |520.0            |5.44891177432145 |4.44891177432145 |Y                |
 |510.0            |5.01503155287048 |4.01503155287048 |Y                |
 |500.0            |4.37390829335311 |3.37390829335311 |Y                |
 |490.0            |3.90064320906276 |2.90064320906276 |Y                |
 |480.0            |2.48394507633918 |1.48394507633918 |Y                |
 |470.0            |0.75607866186437 |-0.0385165353965 |N                |
 |460.0            |0.75004481626190 |-0.4308276325909 |N                |
 |450.0            |0.75149326105472 |-0.3687067532225 |N                |
 |440.0            |0.75250558842271 |-0.2488034070177 |N                |
 |430.0            |0.75305926168372 |-0.1296709179274 |N                |
 |420.0            |1.00263356102959 |0.00263356102959 |Y                |
 |410.0            |1.13657256383351 |0.13657256383351 |Y                |
 |400.0            |1.26009757420945 |0.26009757420945 |Y                |
 |390.0            |1.36297200190983 |0.36297200190983 |Y                |
 |380.0            |1.43778389926103 |0.43778389926103 |Y                |
 |370.0            |1.47971061171313 |0.47971061171313 |Y                |
 |360.0            |1.48593025586239 |0.48593025586239 |Y                |
 |350.0            |1.45525442344830 |0.45525442344830 |Y                |
 |340.0            |1.38817385218317 |0.38817385218317 |Y                |
 |330.0            |1.28739198721734 |0.28739198721734 |Y                |
 |320.0            |1.15882899161624 |0.15882899161624 |Y                |
 |310.0            |1.01260510712404 |0.01260510712404 |Y                |
 |300.0            |0.75046478464738 |-0.1373734206975 |N                |
 |290.0            |0.76275591605284 |-0.2090510947189 |N                |
 |280.0            |0.76179257273535 |-0.3374050088990 |N                |
 |270.0            |0.76069249118757 |-0.4373419613284 |N                |
 |260.0            |0.75945862227808 |-0.5019970226685 |N                |
 |250.0            |0.75809171297319 |-0.5273597422570 |N                |

Win rate = 0.4878048780487805
Average separation value = -11.175807679287052
