LEARNING LOG 

Time: 02/02/2020 19:24:56
Evaluation of model defined in msr_eval_45192

Sprint Distance Table:
 |Sprint Distance  |Reward           |Final Sep.       |Win?             |
 |650.0            |0.54500489722651 |-178.30424161128 |N                |
 |640.0            |0.55056295996520 |-173.01405153790 |N                |
 |630.0            |0.54991490677912 |-169.09954512834 |N                |
 |620.0            |0.55700908195182 |-162.64741528625 |N                |
 |610.0            |0.55695365340377 |-158.15798294055 |N                |
 |600.0            |0.56269557065167 |-152.96096609573 |N                |
 |590.0            |0.56501839037780 |-146.50735612537 |N                |
 |580.0            |0.57129192910610 |-141.04604693430 |N                |
 |570.0            |0.57385158801218 |-134.41511758964 |N                |
 |560.0            |0.58280551809040 |-127.11946726359 |N                |
 |550.0            |0.59420237195152 |-118.22267746692 |N                |
 |540.0            |0.59590856591826 |-112.35980858647 |N                |
 |530.0            |0.60587747043088 |-104.82655517316 |N                |
 |520.0            |0.60926135697645 |-97.812056949530 |N                |
 |510.0            |0.61822124188424 |-91.280167904769 |N                |
 |500.0            |0.62951056229230 |-83.381468534495 |N                |
 |490.0            |0.63353076007029 |-76.124596639097 |N                |
 |480.0            |0.64229701350943 |-70.210910667659 |N                |
 |470.0            |0.64759950997295 |-66.646525202464 |N                |
 |460.0            |0.65448445493448 |-62.197083606044 |N                |
 |450.0            |0.65016001668145 |-60.119939520480 |N                |
 |440.0            |0.65761657227612 |-55.410257920176 |N                |
 |430.0            |0.66412901723300 |-51.382549015262 |N                |
 |420.0            |0.67503895406616 |-45.007150145518 |N                |
 |410.0            |0.69116862842139 |-36.009288069795 |N                |
 |400.0            |0.70797587415471 |-27.018886862886 |N                |
 |390.0            |0.71272154614994 |-20.014271450361 |N                |
 |380.0            |0.72992683295097 |-11.409619141108 |N                |
 |370.0            |0.74553306152556 |-3.9915585530762 |N                |
 |360.0            |4.90142263261930 |3.90142263261930 |Y                |
 |350.0            |5.6903548298543  |4.6903548298543  |Y                |
 |340.0            |4.89326649439431 |3.89326649439431 |Y                |
 |330.0            |0.76062294915221 |-0.3507513727342 |N                |
 |320.0            |0.75003564694383 |-0.5154224713933 |N                |
 |310.0            |1.01260510712404 |0.01260510712404 |Y                |
 |300.0            |0.75046478464738 |-0.1373734206975 |N                |
 |290.0            |0.76275591605284 |-0.2090510947189 |N                |
 |280.0            |0.76179257273535 |-0.3374050088990 |N                |
 |270.0            |0.76069249118757 |-0.4373419613284 |N                |
 |260.0            |0.75945862227808 |-0.5019970226685 |N                |
 |250.0            |0.75809171297319 |-0.5273597422570 |N                |

Win rate = 0.0975609756097561
Average separation value = -66.51747841348795
LEARNING LOG 

Time: 03/02/2020 14:15:50
Evaluation of model defined in msr_eval_45192

Sprint Distance Table:
 |Sprint Distance  |Reward           |Final Sep.       |Win?             |
 |650.0            |0.54500489722651 |-178.30424161128 |N                |
 |640.0            |0.55056295996520 |-173.01405153790 |N                |
 |630.0            |0.54991490677912 |-169.09954512834 |N                |
 |620.0            |0.55700908195182 |-162.64741528625 |N                |
 |610.0            |0.55695365340377 |-158.15798294055 |N                |
 |600.0            |0.56269557065167 |-152.96096609573 |N                |
 |590.0            |0.56501839037780 |-146.50735612537 |N                |
 |580.0            |0.57129192910610 |-141.04604693430 |N                |
 |570.0            |0.57385158801218 |-134.41511758964 |N                |
 |560.0            |0.58280551809040 |-127.11946726359 |N                |
 |550.0            |0.59420237195152 |-118.22267746692 |N                |
 |540.0            |0.59590856591826 |-112.35980858647 |N                |
 |530.0            |0.60587747043088 |-104.82655517316 |N                |
 |520.0            |0.60926135697645 |-97.812056949530 |N                |
 |510.0            |0.61822124188424 |-91.280167904769 |N                |
 |500.0            |0.62951056229230 |-83.381468534495 |N                |
 |490.0            |0.63353076007029 |-76.124596639097 |N                |
 |480.0            |0.64229701350943 |-70.210910667659 |N                |
 |470.0            |0.64759950997295 |-66.646525202464 |N                |
 |460.0            |0.65448445493448 |-62.197083606044 |N                |
 |450.0            |0.65016001668145 |-60.119939520480 |N                |
 |440.0            |0.65761657227612 |-55.410257920176 |N                |
 |430.0            |0.66412901723300 |-51.382549015262 |N                |
 |420.0            |0.67503895406616 |-45.007150145518 |N                |
 |410.0            |0.69116862842139 |-36.009288069795 |N                |
 |400.0            |0.70797587415471 |-27.018886862886 |N                |
 |390.0            |0.71272154614994 |-20.014271450361 |N                |
 |380.0            |0.72992683295097 |-11.409619141108 |N                |
 |370.0            |0.74553306152556 |-3.9915585530762 |N                |
 |360.0            |4.90142263261930 |3.90142263261930 |Y                |
 |350.0            |5.6903548298543  |4.6903548298543  |Y                |
 |340.0            |4.89326649439431 |3.89326649439431 |Y                |
 |330.0            |0.76062294915221 |-0.3507513727342 |N                |
 |320.0            |0.75003564694383 |-0.5154224713933 |N                |
 |310.0            |1.01260510712404 |0.01260510712404 |Y                |
 |300.0            |0.75046478464738 |-0.1373734206975 |N                |
 |290.0            |0.76275591605284 |-0.2090510947189 |N                |
 |280.0            |0.76179257273535 |-0.3374050088990 |N                |
 |270.0            |0.76069249118757 |-0.4373419613284 |N                |
 |260.0            |0.75945862227808 |-0.5019970226685 |N                |
 |250.0            |0.75809171297319 |-0.5273597422570 |N                |

Win rate = 0.0975609756097561
Average separation value = -66.51747841348795
