LEARNING LOG 

Time: 03/02/2020 14:39:14
Analysing set of learning runs, each corresponding to varying number of timesteps  on action space with 13 elements, using scaled_distance reward mode.

Win Rate Comparison table:
 |Run     |50000   |75000   |100000  |125000  |150000  |
 |1       |0.19512 |0.58536 |0.58536 |0.58536 |0.58536 |
 |2       |0.58536 |0.58536 |0.58536 |0.58536 |0.58536 |
 |3       |0.48780 |0.48780 |0.85365 |0.97560 |0.97560 |
 |4       |0.58536 |0.58536 |0.58536 |0.58536 |0.58536 |
 |5       |0.63414 |0.63414 |0.63414 |0.63414 |0.63414 |
 |6       |0.65853 |0.65853 |0.65853 |0.65853 |0.65853 |
 |7       |0.58536 |0.58536 |0.58536 |0.58536 |0.58536 |

Average Separation Comparison table:
 |Run     |50000   |75000   |100000  |125000  |150000  |
 |1       |-58.374 |0.35676 |0.35676 |0.35676 |0.35676 |
 |2       |0.35676 |0.35676 |0.35676 |0.35676 |0.35676 |
 |3       |-17.951 |0.61910 |2.37967 |3.21149 |3.21149 |
 |4       |0.35676 |0.35676 |0.35676 |0.35676 |0.35676 |
 |5       |0.24302 |0.24302 |0.24302 |1.11129 |1.11129 |
 |6       |1.26459 |1.26459 |1.26459 |1.26459 |1.26459 |
 |7       |0.35676 |0.35676 |0.35676 |0.35676 |0.35676 |

Averaged Win Rate Comparison:
 |# Runs Used  |50000        |75000        |100000       |125000       |150000       |
 |1            |0.1951219512 |0.5853658536 |0.5853658536 |0.5853658536 |0.5853658536 |
 |2            |0.3902439024 |0.5853658536 |0.5853658536 |0.5853658536 |0.5853658536 |
 |3            |0.4227642276 |0.5528455284 |0.6747967479 |0.7154471544 |0.7154471544 |
 |4            |0.4634146341 |0.5609756097 |0.6524390243 |0.6829268292 |0.6829268292 |
 |5            |0.4975609756 |0.5756097560 |0.6487804878 |0.6731707317 |0.6731707317 |
 |6            |0.5243902439 |0.5894308943 |0.6504065040 |0.6707317073 |0.6707317073 |
 |7            |0.5331010452 |0.5888501742 |0.6411149825 |0.6585365853 |0.6585365853 |

