LEARNING LOG 

Time: 12/02/2020 16:56:26
Analysing set of learning runs, each corresponding to varying number of timesteps  on action space with 11 elements, using scaled_distance reward mode.

Win Rate Comparison table:
 |Run     |50000   |75000   |100000  |125000  |150000  |
 |1       |0.68292 |0.68292 |0.68292 |0.68292 |0.68292 |
 |2       |0.68292 |0.68292 |0.68292 |0.68292 |0.68292 |
 |3       |0.31707 |0.90243 |0.90243 |0.90243 |0.90243 |
 |4       |0.68292 |0.68292 |0.68292 |0.68292 |0.68292 |
 |5       |0.0     |0.17073 |0.53658 |0.68292 |0.68292 |
 |6       |0.60975 |0.60975 |0.60975 |0.60975 |0.60975 |
 |7       |0.68292 |0.68292 |0.68292 |0.75609 |0.75609 |

Average Separation Comparison table:
 |Run     |50000   |75000   |100000  |125000  |150000  |
 |1       |1.29321 |1.29321 |1.29321 |1.29321 |1.29321 |
 |2       |1.29321 |1.29321 |1.29321 |1.29321 |1.29321 |
 |3       |-44.674 |2.17159 |2.17159 |2.17159 |2.17159 |
 |4       |1.29321 |1.29321 |1.29321 |1.29321 |1.29321 |
 |5       |-35.577 |-5.2833 |-0.2197 |1.29321 |1.29321 |
 |6       |-2.9219 |-2.9219 |-2.9219 |-2.9219 |-2.9219 |
 |7       |1.29321 |1.29321 |1.29321 |-3.2774 |-3.2774 |

Averaged Win Rate Comparison:
 |# Runs Used  |50000        |75000        |100000       |125000       |150000       |
 |1            |0.6829268292 |0.6829268292 |0.6829268292 |0.6829268292 |0.6829268292 |
 |2            |0.6829268292 |0.6829268292 |0.6829268292 |0.6829268292 |0.6829268292 |
 |3            |0.5609756097 |0.7560975609 |0.7560975609 |0.7560975609 |0.7560975609 |
 |4            |0.5914634146 |0.7378048780 |0.7378048780 |0.7378048780 |0.7378048780 |
 |5            |0.4731707317 |0.6243902439 |0.6975609756 |0.7268292682 |0.7268292682 |
 |6            |0.4959349593 |0.6219512195 |0.6829268292 |0.7073170731 |0.7073170731 |
 |7            |0.5226480836 |0.6306620209 |0.6829268292 |0.7142857142 |0.7142857142 |

