LEARNING LOG 

Time: 12/02/2020 16:34:19
Evaluation of model defined in msr_eval_52460

Sprint Distance Table:
 |Sprint Distance  |Reward           |Final Sep.       |Win?             |
 |650.0            |0.74922998147754 |-3.4950161964748 |N                |
 |640.0            |0.75114289253530 |-3.1001699644060 |N                |
 |630.0            |0.74808452755922 |-2.4480596554112 |N                |
 |620.0            |0.74996317745821 |-1.9717589136993 |N                |
 |610.0            |0.75187216397282 |-1.4608823127107 |N                |
 |600.0            |0.75381297042478 |-0.9145102039682 |N                |
 |590.0            |0.75036921098727 |-0.0341217853998 |N                |
 |580.0            |1.56306709778311 |0.56306709778311 |Y                |
 |570.0            |2.13343199457563 |1.13343199457563 |Y                |
 |560.0            |2.92172659115385 |1.92172659115385 |Y                |
 |550.0            |3.40068289971213 |2.40068289971213 |Y                |
 |540.0            |3.84181653408404 |2.84181653408404 |Y                |
 |530.0            |4.24471493033206 |3.24471493033206 |Y                |
 |520.0            |4.77648800227962 |3.77648800227962 |Y                |
 |510.0            |5.08202562837539 |4.08202562837539 |Y                |
 |500.0            |5.34788651714666 |4.34788651714666 |Y                |
 |490.0            |5.57361677449182 |4.57361677449182 |Y                |
 |480.0            |5.75872228423304 |4.75872228423304 |Y                |
 |470.0            |5.90265612216774 |4.90265612216774 |Y                |
 |460.0            |6.04000118435010 |5.04000118435010 |Y                |
 |450.0            |6.07816077126949 |5.07816077126949 |Y                |
 |440.0            |6.07265634751843 |5.07265634751843 |Y                |
 |430.0            |6.02257610804383 |5.02257610804383 |Y                |
 |420.0            |5.92691180810879 |4.92691180810879 |Y                |
 |410.0            |5.78455985360005 |4.78455985360005 |Y                |
 |400.0            |5.59432613494038 |4.59432613494038 |Y                |
 |390.0            |5.35493474219845 |4.35493474219845 |Y                |
 |380.0            |5.06504048005160 |4.06504048005160 |Y                |
 |370.0            |4.72324481055716 |3.72324481055716 |Y                |
 |360.0            |4.32811450846816 |3.32811450846816 |Y                |
 |350.0            |3.87820200070541 |2.87820200070541 |Y                |
 |340.0            |3.37206655243494 |2.37206655243494 |Y                |
 |330.0            |2.80830063692337 |1.80830063692337 |Y                |
 |320.0            |2.50439317144753 |1.50439317144753 |Y                |
 |310.0            |1.85203370761996 |0.85203370761996 |Y                |
 |300.0            |1.14413127680165 |0.14413127680165 |Y                |
 |290.0            |0.75872371343346 |-0.5859007608434 |N                |
 |280.0            |0.75719214536413 |-1.2893129548116 |N                |
 |270.0            |0.75550988523615 |-1.9525586650735 |N                |
 |260.0            |0.75367198709467 |-2.5734710490298 |N                |
 |250.0            |0.75167275163623 |-3.1508042016661 |N                |

Win rate = 0.7073170731707317
Average separation value = 1.8321932392165774
