0.0 msr_callback_71999
0.0 msr_callback_4999
0.0 msr_callback_999
0.11800358422044994 msr_callback_60999
0.18152959020314638 msr_callback_5999
0.18891479380757806 msr_callback_67999
0.5004713895350087 msr_callback_63999
0.5633343825508914 msr_callback_61999
0.6314867824977429 msr_callback_70999
1.13444520361395 msr_callback_66999
1.15235023109733 msr_callback_85999
1.15235023109733 msr_callback_84999
1.15235023109733 msr_callback_83999
1.15235023109733 msr_callback_82999
1.15235023109733 msr_callback_81999
1.15235023109733 msr_callback_80999
1.15235023109733 msr_callback_79999
1.15235023109733 msr_callback_78999
1.15235023109733 msr_callback_77999
1.15235023109733 msr_callback_73999
1.15235023109733 msr_callback_75999
1.15235023109733 msr_callback_74999
1.15235023109733 msr_callback_1999
1.15235023109733 msr_callback_86999
1.15235023109733 msr_callback_69999
1.15235023109733 msr_callback_68999
1.15235023109733 msr_callback_65999
1.15235023109733 msr_callback_64999
1.15235023109733 msr_callback_62999
1.15235023109733 msr_callback_76999
1.15235023109733 msr_callback_72999
