LEARNING LOG 

Time: 02/02/2020 19:34:57
Evaluation of model defined in msr_eval_44577

Sprint Distance Table:
 |Sprint Distance  |Reward           |Final Sep.       |Win?             |
 |650.0            |0.69338559478235 |-49.707360350479 |N                |
 |640.0            |0.69833947785142 |-46.911139895369 |N                |
 |630.0            |0.69536165126187 |-46.923998358686 |N                |
 |620.0            |0.69697529901856 |-46.941728892180 |N                |
 |610.0            |0.69722730549757 |-44.068451449356 |N                |
 |600.0            |0.69879365944210 |-44.082201868886 |N                |
 |590.0            |0.69897318768915 |-41.129257693439 |N                |
 |580.0            |0.70048322479901 |-41.137788569929 |N                |
 |570.0            |0.70059518464510 |-38.089595808729 |N                |
 |560.0            |0.70203873388215 |-38.091613151816 |N                |
 |550.0            |0.70778662567178 |-34.927038796126 |N                |
 |540.0            |0.70806432102157 |-31.606881031181 |N                |
 |530.0            |0.70952120262598 |-31.584206443358 |N                |
 |520.0            |0.70997585061461 |-27.982029692164 |N                |
 |510.0            |0.71739775161709 |-23.837678197925 |N                |
 |500.0            |0.71887911682990 |-23.800073372983 |N                |
 |490.0            |0.72239784249768 |-18.060013371076 |N                |
 |480.0            |6.61510411422432 |5.61510411422432 |Y                |
 |470.0            |6.56839509360145 |5.56839509360145 |Y                |
 |460.0            |6.47804324988339 |5.47804324988339 |Y                |
 |450.0            |6.34297423723660 |5.34297423723660 |Y                |
 |440.0            |6.16201298214275 |5.16201298214275 |Y                |
 |430.0            |5.93389063433403 |4.93389063433403 |Y                |
 |420.0            |5.65725524574782 |4.65725524574782 |Y                |
 |410.0            |5.33068598571276 |4.33068598571276 |Y                |
 |400.0            |4.95271036916835 |3.95271036916835 |Y                |
 |390.0            |4.52182358767140 |3.52182358767140 |Y                |
 |380.0            |4.03650866538180 |3.03650866538180 |Y                |
 |370.0            |3.49525613604328 |2.49525613604328 |Y                |
 |360.0            |2.89658537372304 |1.89658537372304 |Y                |
 |350.0            |2.23912043362179 |1.23912043362179 |Y                |
 |340.0            |1.52260711602775 |0.52260711602775 |Y                |
 |330.0            |0.75704546552396 |-0.2395654989827 |N                |
 |320.0            |0.75606277065829 |-0.9977987991965 |N                |
 |310.0            |0.75495585613224 |-1.7227039187797 |N                |
 |300.0            |0.75372192732859 |-2.4100710413767 |N                |
 |290.0            |0.75235433530984 |-3.0586756716805 |N                |
 |280.0            |0.75084604571466 |-3.6674854511882 |N                |
 |270.0            |0.74918994127671 |-4.2355131622330 |N                |
 |260.0            |0.74737900303495 |-4.7618109028688 |N                |
 |250.0            |0.74540656864106 |-5.2454644427756 |N                |

Win rate = 0.36585365853658536
Average separation value = -14.572370063615852
LEARNING LOG 

Time: 03/02/2020 14:33:19
Evaluation of model defined in msr_eval_44577

Sprint Distance Table:
 |Sprint Distance  |Reward           |Final Sep.       |Win?             |
 |650.0            |0.69338559478235 |-49.707360350479 |N                |
 |640.0            |0.69833947785142 |-46.911139895369 |N                |
 |630.0            |0.69536165126187 |-46.923998358686 |N                |
 |620.0            |0.69697529901856 |-46.941728892180 |N                |
 |610.0            |0.69722730549757 |-44.068451449356 |N                |
 |600.0            |0.69879365944210 |-44.082201868886 |N                |
 |590.0            |0.69897318768915 |-41.129257693439 |N                |
 |580.0            |0.70048322479901 |-41.137788569929 |N                |
 |570.0            |0.70059518464510 |-38.089595808729 |N                |
 |560.0            |0.70203873388215 |-38.091613151816 |N                |
 |550.0            |0.70778662567178 |-34.927038796126 |N                |
 |540.0            |0.70806432102157 |-31.606881031181 |N                |
 |530.0            |0.70952120262598 |-31.584206443358 |N                |
 |520.0            |0.70997585061461 |-27.982029692164 |N                |
 |510.0            |0.71739775161709 |-23.837678197925 |N                |
 |500.0            |0.71887911682990 |-23.800073372983 |N                |
 |490.0            |0.72239784249768 |-18.060013371076 |N                |
 |480.0            |6.61510411422432 |5.61510411422432 |Y                |
 |470.0            |6.56839509360145 |5.56839509360145 |Y                |
 |460.0            |6.47804324988339 |5.47804324988339 |Y                |
 |450.0            |6.34297423723660 |5.34297423723660 |Y                |
 |440.0            |6.16201298214275 |5.16201298214275 |Y                |
 |430.0            |5.93389063433403 |4.93389063433403 |Y                |
 |420.0            |5.65725524574782 |4.65725524574782 |Y                |
 |410.0            |5.33068598571276 |4.33068598571276 |Y                |
 |400.0            |4.95271036916835 |3.95271036916835 |Y                |
 |390.0            |4.52182358767140 |3.52182358767140 |Y                |
 |380.0            |4.03650866538180 |3.03650866538180 |Y                |
 |370.0            |3.49525613604328 |2.49525613604328 |Y                |
 |360.0            |2.89658537372304 |1.89658537372304 |Y                |
 |350.0            |2.23912043362179 |1.23912043362179 |Y                |
 |340.0            |1.52260711602775 |0.52260711602775 |Y                |
 |330.0            |0.75704546552396 |-0.2395654989827 |N                |
 |320.0            |0.75606277065829 |-0.9977987991965 |N                |
 |310.0            |0.75495585613224 |-1.7227039187797 |N                |
 |300.0            |0.75372192732859 |-2.4100710413767 |N                |
 |290.0            |0.75235433530984 |-3.0586756716805 |N                |
 |280.0            |0.75084604571466 |-3.6674854511882 |N                |
 |270.0            |0.74918994127671 |-4.2355131622330 |N                |
 |260.0            |0.74737900303495 |-4.7618109028688 |N                |
 |250.0            |0.74540656864106 |-5.2454644427756 |N                |

Win rate = 0.36585365853658536
Average separation value = -14.572370063615852
