LEARNING LOG 

Time: 09/03/2020 12:48:00
Learning run from scratch using 500000 timesteps.

Overall Agent Performance:
 |Step        |Win Rate    |Av. Reward  |Av. Sep.    |
 |-1          |0.0         |0.728525659 |-0.02914017 |
 |14638       |0.0         |0.741074996 |-0.01254807 |

Leading Performance:
 |Step        |Win Rate    |Av. Reward  |Av. Sep.    |
 |-1          |0.0         |0.731784061 |-0.02479133 |
 |14638       |0.0         |0.740626287 |-0.01300097 |

Trailing Performance:
 |Step        |Win Rate    |Av. Reward  |Av. Sep.    |
 |-1          |0.0         |0.725267257 |-0.03348902 |
 |14638       |0.0         |0.741523705 |-0.01209518 |

LEARNING LOG 

Time: 09/03/2020 12:48:00
Learning run from scratch using 500000 timesteps.

Overall Agent Performance:
 |Step        |Win Rate    |Av. Reward  |Av. Sep.    |
 |-1          |0.0         |0.728525659 |-0.02914017 |
 |14638       |0.0         |0.741074996 |-0.01254807 |
 |29619       |0.02        |0.753828784 |-0.02517157 |

Leading Performance:
 |Step        |Win Rate    |Av. Reward  |Av. Sep.    |
 |-1          |0.0         |0.731784061 |-0.02479133 |
 |14638       |0.0         |0.740626287 |-0.01300097 |
 |29619       |0.0         |0.731258083 |-0.02559938 |

Trailing Performance:
 |Step        |Win Rate    |Av. Reward  |Av. Sep.    |
 |-1          |0.0         |0.725267257 |-0.03348902 |
 |14638       |0.0         |0.741523705 |-0.01209518 |
 |29619       |0.04        |0.776399485 |-0.02474376 |

LEARNING LOG 

Time: 09/03/2020 12:48:00
Learning run from scratch using 500000 timesteps.

Overall Agent Performance:
 |Step        |Win Rate    |Av. Reward  |Av. Sep.    |
 |-1          |0.0         |0.728525659 |-0.02914017 |
 |14638       |0.0         |0.741074996 |-0.01254807 |
 |29619       |0.02        |0.753828784 |-0.02517157 |
 |217768      |0.02        |0.779476568 |-0.02891804 |

Leading Performance:
 |Step        |Win Rate    |Av. Reward  |Av. Sep.    |
 |-1          |0.0         |0.731784061 |-0.02479133 |
 |14638       |0.0         |0.740626287 |-0.01300097 |
 |29619       |0.0         |0.731258083 |-0.02559938 |
 |217768      |0.0         |0.732056356 |-0.02439828 |

Trailing Performance:
 |Step        |Win Rate    |Av. Reward  |Av. Sep.    |
 |-1          |0.0         |0.725267257 |-0.03348902 |
 |14638       |0.0         |0.741523705 |-0.01209518 |
 |29619       |0.04        |0.776399485 |-0.02474376 |
 |217768      |0.04        |0.826896779 |-0.03343780 |

LEARNING LOG 

Time: 09/03/2020 12:48:00
Learning run from scratch using 500000 timesteps.

Overall Agent Performance:
 |Step        |Win Rate    |Av. Reward  |Av. Sep.    |
 |-1          |0.0         |0.728525659 |-0.02914017 |
 |14638       |0.0         |0.741074996 |-0.01254807 |
 |29619       |0.02        |0.753828784 |-0.02517157 |
 |217768      |0.02        |0.779476568 |-0.02891804 |
 |475336      |0.04        |0.753432010 |-0.02958751 |

Leading Performance:
 |Step        |Win Rate    |Av. Reward  |Av. Sep.    |
 |-1          |0.0         |0.731784061 |-0.02479133 |
 |14638       |0.0         |0.740626287 |-0.01300097 |
 |29619       |0.0         |0.731258083 |-0.02559938 |
 |217768      |0.0         |0.732056356 |-0.02439828 |
 |475336      |0.0         |0.729833146 |-0.02727890 |

Trailing Performance:
 |Step        |Win Rate    |Av. Reward  |Av. Sep.    |
 |-1          |0.0         |0.725267257 |-0.03348902 |
 |14638       |0.0         |0.741523705 |-0.01209518 |
 |29619       |0.04        |0.776399485 |-0.02474376 |
 |217768      |0.04        |0.826896779 |-0.03343780 |
 |475336      |0.08        |0.777030875 |-0.03189612 |

LEARNING LOG 

Time: 09/03/2020 12:48:00
Learning run from scratch using 500000 timesteps.

Overall Agent Performance:
 |Step        |Win Rate    |Av. Reward  |Av. Sep.    |
 |-1          |0.0         |0.728525659 |-0.02914017 |
 |14638       |0.0         |0.741074996 |-0.01254807 |
 |29619       |0.02        |0.753828784 |-0.02517157 |
 |217768      |0.02        |0.779476568 |-0.02891804 |
 |475336      |0.04        |0.753432010 |-0.02958751 |

Leading Performance:
 |Step        |Win Rate    |Av. Reward  |Av. Sep.    |
 |-1          |0.0         |0.731784061 |-0.02479133 |
 |14638       |0.0         |0.740626287 |-0.01300097 |
 |29619       |0.0         |0.731258083 |-0.02559938 |
 |217768      |0.0         |0.732056356 |-0.02439828 |
 |475336      |0.0         |0.729833146 |-0.02727890 |

Trailing Performance:
 |Step        |Win Rate    |Av. Reward  |Av. Sep.    |
 |-1          |0.0         |0.725267257 |-0.03348902 |
 |14638       |0.0         |0.741523705 |-0.01209518 |
 |29619       |0.04        |0.776399485 |-0.02474376 |
 |217768      |0.04        |0.826896779 |-0.03343780 |
 |475336      |0.08        |0.777030875 |-0.03189612 |

Total Wall time (mins) = 65.91886960668344
