LEARNING LOG 

Time: 02/02/2020 19:36:18
Evaluation of model defined in msr_eval_49122

Sprint Distance Table:
 |Sprint Distance  |Reward           |Final Sep.       |Win?             |
 |650.0            |0.64013947700764 |-95.852164695260 |N                |
 |640.0            |0.64256857924133 |-94.500490718703 |N                |
 |630.0            |0.63694773959910 |-95.990373648795 |N                |
 |620.0            |0.63856191270606 |-95.228823581076 |N                |
 |610.0            |0.63688462591749 |-93.145884345511 |N                |
 |600.0            |0.64012729364075 |-91.014020682158 |N                |
 |590.0            |0.63723162923960 |-89.698052327349 |N                |
 |580.0            |0.63791081363123 |-89.525894590088 |N                |
 |570.0            |0.63478062286860 |-88.107514410130 |N                |
 |560.0            |0.63865270570854 |-85.418704952114 |N                |
 |550.0            |0.64426019515235 |-81.512085692576 |N                |
 |540.0            |0.64462965600081 |-77.278979953560 |N                |
 |530.0            |0.65340745396287 |-71.236551201857 |N                |
 |520.0            |0.65427235234582 |-66.601792007937 |N                |
 |510.0            |0.66039668500162 |-62.597767096373 |N                |
 |500.0            |0.66935998992856 |-56.811724267570 |N                |
 |490.0            |0.66953410468936 |-52.598906806356 |N                |
 |480.0            |0.67724407024223 |-47.840739654105 |N                |
 |470.0            |0.68026763314582 |-46.170170971174 |N                |
 |460.0            |0.68773673081308 |-41.797496030107 |N                |
 |450.0            |0.68073772855201 |-41.768520709609 |N                |
 |440.0            |0.68177371577966 |-41.233320243561 |N                |
 |430.0            |0.68452521906194 |-39.682705981841 |N                |
 |420.0            |0.68969861864669 |-36.790331005725 |N                |
 |410.0            |0.69054513200086 |-36.343480047263 |N                |
 |400.0            |0.68927041821732 |-36.990747723267 |N                |
 |390.0            |0.68670386540275 |-33.541300710545 |N                |
 |380.0            |0.68576710030094 |-33.780949291444 |N                |
 |370.0            |0.68620997905581 |-33.253995796321 |N                |
 |360.0            |0.69005773262542 |-31.041874571446 |N                |
 |350.0            |0.69038350556661 |-30.516370394961 |N                |
 |340.0            |0.69084417959581 |-29.877349335708 |N                |
 |330.0            |0.69532707176920 |-27.418627868212 |N                |
 |320.0            |0.69478106782288 |-27.166535485467 |N                |
 |310.0            |0.69476738265046 |-26.620296062295 |N                |
 |300.0            |0.69844141301453 |-24.538727069041 |N                |
 |290.0            |0.69826288476073 |-23.988936226433 |N                |
 |280.0            |0.70440014507641 |-21.019469903937 |N                |
 |270.0            |0.70405379523085 |-20.495639659358 |N                |
 |260.0            |0.70358859046204 |-19.952672597925 |N                |
 |250.0            |0.70653186473624 |-18.212305134300 |N                |

Win rate = 0.0
Average separation value = -52.613714474426295
LEARNING LOG 

Time: 03/02/2020 14:35:47
Evaluation of model defined in msr_eval_49122

Sprint Distance Table:
 |Sprint Distance  |Reward           |Final Sep.       |Win?             |
 |650.0            |0.64013947700764 |-95.852164695260 |N                |
 |640.0            |0.64256857924133 |-94.500490718703 |N                |
 |630.0            |0.63694773959910 |-95.990373648795 |N                |
 |620.0            |0.63856191270606 |-95.228823581076 |N                |
 |610.0            |0.63688462591749 |-93.145884345511 |N                |
 |600.0            |0.64012729364075 |-91.014020682158 |N                |
 |590.0            |0.63723162923960 |-89.698052327349 |N                |
 |580.0            |0.63791081363123 |-89.525894590088 |N                |
 |570.0            |0.63478062286860 |-88.107514410130 |N                |
 |560.0            |0.63865270570854 |-85.418704952114 |N                |
 |550.0            |0.64426019515235 |-81.512085692576 |N                |
 |540.0            |0.64462965600081 |-77.278979953560 |N                |
 |530.0            |0.65340745396287 |-71.236551201857 |N                |
 |520.0            |0.65427235234582 |-66.601792007937 |N                |
 |510.0            |0.66039668500162 |-62.597767096373 |N                |
 |500.0            |0.66935998992856 |-56.811724267570 |N                |
 |490.0            |0.66953410468936 |-52.598906806356 |N                |
 |480.0            |0.67724407024223 |-47.840739654105 |N                |
 |470.0            |0.68026763314582 |-46.170170971174 |N                |
 |460.0            |0.68773673081308 |-41.797496030107 |N                |
 |450.0            |0.68073772855201 |-41.768520709609 |N                |
 |440.0            |0.68177371577966 |-41.233320243561 |N                |
 |430.0            |0.68452521906194 |-39.682705981841 |N                |
 |420.0            |0.68969861864669 |-36.790331005725 |N                |
 |410.0            |0.69054513200086 |-36.343480047263 |N                |
 |400.0            |0.68927041821732 |-36.990747723267 |N                |
 |390.0            |0.68670386540275 |-33.541300710545 |N                |
 |380.0            |0.68576710030094 |-33.780949291444 |N                |
 |370.0            |0.68620997905581 |-33.253995796321 |N                |
 |360.0            |0.69005773262542 |-31.041874571446 |N                |
 |350.0            |0.69038350556661 |-30.516370394961 |N                |
 |340.0            |0.69084417959581 |-29.877349335708 |N                |
 |330.0            |0.69532707176920 |-27.418627868212 |N                |
 |320.0            |0.69478106782288 |-27.166535485467 |N                |
 |310.0            |0.69476738265046 |-26.620296062295 |N                |
 |300.0            |0.69844141301453 |-24.538727069041 |N                |
 |290.0            |0.69826288476073 |-23.988936226433 |N                |
 |280.0            |0.70440014507641 |-21.019469903937 |N                |
 |270.0            |0.70405379523085 |-20.495639659358 |N                |
 |260.0            |0.70358859046204 |-19.952672597925 |N                |
 |250.0            |0.70653186473624 |-18.212305134300 |N                |

Win rate = 0.0
Average separation value = -52.613714474426295
