LEARNING LOG 

Time: 01/02/2020 20:40:20
Set of learning runs, each corresponding to 150000 timesteps on action space with 5 elements, using scaled_distance reward mode.

Final performance table:
 |Run             |Best av. R      |Best Win Rate   |Best av. eval. R|Step            |Walltime        |
 |1               |1.349055468     |0.4             |2.2505615228040 |59002           |12.507555101983 |
 |2               |1.5456361440000 |0.4             |1.1171552716988 |55934           |12.595082384383 |
 |3               |1.292509581     |0.6             |1.1951613751061 |32209           |12.470786877666 |
 |4               |1.406777644     |0.4             |1.5986229346262 |44172           |12.601427186666 |
 |5               |1.5569032430000 |0.6             |1.4363434809362 |98137           |12.644976027950 |
 |6               |1.310993551     |0.4             |3.0083834385136 |5505            |12.468476399866 |
 |7               |1.265112708     |0.4             |0.9850456078242 |40519           |12.393539095549 |

Run / Timestep win rates:
 |Run   |25000 |50000 |75000 |100000|125000|150000|
 |1     |2127  |45192 |59002 |59002 |59002 |59002 |
 |2     |2198  |37203 |55934 |55934 |55934 |55934 |
 |3     |6066  |32209 |32209 |32209 |32209 |32209 |
 |4     |5928  |44172 |44172 |44172 |44172 |44172 |
 |5     |6237  |42640 |72704 |98137 |98137 |98137 |
 |6     |5505  |5505  |5505  |5505  |5505  |5505  |
 |7     |8050  |40519 |40519 |40519 |40519 |40519 |

Average over runs:
 |Number of runs  |Average Win Rate|
 |1               |0.4             |
 |2               |0.4             |
 |3               |0.4666666666666 |
 |4               |0.4499999999999 |
 |5               |0.48            |
 |6               |0.4666666666666 |
 |7               |0.4571428571428 |

Total Wall time (mins) = 87.68460837184999
Average Wall time per run (mins) = 12.526372624549998
