LEARNING LOG 

Time: 02/02/2020 19:47:05
Evaluation of model defined in msr_eval_96543

Sprint Distance Table:
 |Sprint Distance  |Reward           |Final Sep.       |Win?             |
 |650.0            |0.74912615366793 |-3.2146873467838 |N                |
 |640.0            |0.75098395693662 |-2.4647981185878 |N                |
 |630.0            |0.74798413075479 |-1.7212824404400 |N                |
 |620.0            |0.74993044651926 |-1.6018148138132 |N                |
 |610.0            |0.75186008532521 |-1.0600693643916 |N                |
 |600.0            |0.75383632494255 |-0.0519908369275 |N                |
 |590.0            |1.84646845760369 |0.84646845760369 |Y                |
 |580.0            |1.98100262306695 |0.98100262306695 |Y                |
 |570.0            |2.89592072751099 |1.89592072751099 |Y                |
 |560.0            |3.61874539014695 |2.61874539014695 |Y                |
 |550.0            |4.05396225904860 |3.05396225904860 |Y                |
 |540.0            |4.45139483192417 |3.45139483192417 |Y                |
 |530.0            |5.05645536303688 |4.05645536303688 |Y                |
 |520.0            |5.25358360587301 |4.25358360587301 |Y                |
 |510.0            |5.51792583011263 |4.51792583011263 |Y                |
 |500.0            |5.91066881827941 |4.91066881827941 |Y                |
 |490.0            |6.07642385836891 |5.07642385836891 |Y                |
 |480.0            |6.20163559775096 |5.20163559775096 |Y                |
 |470.0            |6.38235251377057 |5.38235251377057 |Y                |
 |460.0            |6.40648761113789 |5.40648761113789 |Y                |
 |450.0            |6.36229368027943 |5.36229368027943 |Y                |
 |440.0            |6.30099641898698 |5.30099641898698 |Y                |
 |430.0            |6.15367484678938 |5.15367484678938 |Y                |
 |420.0            |5.95972721694488 |4.95972721694488 |Y                |
 |410.0            |5.68118594270413 |4.68118594270413 |Y                |
 |400.0            |5.42667025664025 |4.42667025664025 |Y                |
 |390.0            |5.15234938474782 |4.15234938474782 |Y                |
 |380.0            |4.77724779972049 |3.77724779972049 |Y                |
 |370.0            |4.45099325720343 |3.45099325720343 |Y                |
 |360.0            |4.10715411821627 |3.10715411821627 |Y                |
 |350.0            |3.61040522768598 |2.61040522768598 |Y                |
 |340.0            |3.21655766585445 |2.21655766585445 |Y                |
 |330.0            |2.80830063692337 |1.80830063692337 |Y                |
 |320.0            |2.50439317144753 |1.50439317144753 |Y                |
 |310.0            |1.85203370761996 |0.85203370761996 |Y                |
 |300.0            |1.14413127680165 |0.14413127680165 |Y                |
 |290.0            |0.75872371343346 |-0.5859007608434 |N                |
 |280.0            |0.75719214536413 |-1.2893129548116 |N                |
 |270.0            |0.75550988523615 |-1.9525586650735 |N                |
 |260.0            |0.75367198709467 |-2.5734710490298 |N                |
 |250.0            |0.75167275163623 |-3.1508042016661 |N                |

Win rate = 0.7317073170731707
Average separation value = 2.0852305254592434
LEARNING LOG 

Time: 03/02/2020 14:49:52
Evaluation of model defined in msr_eval_96543

Sprint Distance Table:
 |Sprint Distance  |Reward           |Final Sep.       |Win?             |
 |650.0            |0.74912615366793 |-3.2146873467838 |N                |
 |640.0            |0.75098395693662 |-2.4647981185878 |N                |
 |630.0            |0.74798413075479 |-1.7212824404400 |N                |
 |620.0            |0.74993044651926 |-1.6018148138132 |N                |
 |610.0            |0.75186008532521 |-1.0600693643916 |N                |
 |600.0            |0.75383632494255 |-0.0519908369275 |N                |
 |590.0            |1.84646845760369 |0.84646845760369 |Y                |
 |580.0            |1.98100262306695 |0.98100262306695 |Y                |
 |570.0            |2.89592072751099 |1.89592072751099 |Y                |
 |560.0            |3.61874539014695 |2.61874539014695 |Y                |
 |550.0            |4.05396225904860 |3.05396225904860 |Y                |
 |540.0            |4.45139483192417 |3.45139483192417 |Y                |
 |530.0            |5.05645536303688 |4.05645536303688 |Y                |
 |520.0            |5.25358360587301 |4.25358360587301 |Y                |
 |510.0            |5.51792583011263 |4.51792583011263 |Y                |
 |500.0            |5.91066881827941 |4.91066881827941 |Y                |
 |490.0            |6.07642385836891 |5.07642385836891 |Y                |
 |480.0            |6.20163559775096 |5.20163559775096 |Y                |
 |470.0            |6.38235251377057 |5.38235251377057 |Y                |
 |460.0            |6.40648761113789 |5.40648761113789 |Y                |
 |450.0            |6.36229368027943 |5.36229368027943 |Y                |
 |440.0            |6.30099641898698 |5.30099641898698 |Y                |
 |430.0            |6.15367484678938 |5.15367484678938 |Y                |
 |420.0            |5.95972721694488 |4.95972721694488 |Y                |
 |410.0            |5.68118594270413 |4.68118594270413 |Y                |
 |400.0            |5.42667025664025 |4.42667025664025 |Y                |
 |390.0            |5.15234938474782 |4.15234938474782 |Y                |
 |380.0            |4.77724779972049 |3.77724779972049 |Y                |
 |370.0            |4.45099325720343 |3.45099325720343 |Y                |
 |360.0            |4.10715411821627 |3.10715411821627 |Y                |
 |350.0            |3.61040522768598 |2.61040522768598 |Y                |
 |340.0            |3.21655766585445 |2.21655766585445 |Y                |
 |330.0            |2.80830063692337 |1.80830063692337 |Y                |
 |320.0            |2.50439317144753 |1.50439317144753 |Y                |
 |310.0            |1.85203370761996 |0.85203370761996 |Y                |
 |300.0            |1.14413127680165 |0.14413127680165 |Y                |
 |290.0            |0.75872371343346 |-0.5859007608434 |N                |
 |280.0            |0.75719214536413 |-1.2893129548116 |N                |
 |270.0            |0.75550988523615 |-1.9525586650735 |N                |
 |260.0            |0.75367198709467 |-2.5734710490298 |N                |
 |250.0            |0.75167275163623 |-3.1508042016661 |N                |

Win rate = 0.7317073170731707
Average separation value = 2.0852305254592434
