LEARNING LOG 

Time: 02/02/2020 17:26:20
Evaluation of model defined in msr_eval_66410

Sprint Distance Table:
 |Sprint Distance  |Reward           |Final Sep.       |Win?             |
 |650.0            |8.749131837297   |7.749131837297   |Y                |
 |640.0            |8.90514200202392 |7.90514200202392 |Y                |
 |630.0            |8.75489461072629 |7.75489461072629 |Y                |
 |620.0            |8.56550706414623 |7.56550706414623 |Y                |
 |610.0            |8.22955859007561 |7.22955859007561 |Y                |
 |600.0            |7.94351958132983 |6.94351958132983 |Y                |
 |590.0            |7.53145126746108 |6.53145126746108 |Y                |
 |580.0            |7.17328282838025 |6.17328282838025 |Y                |
 |570.0            |6.61111918814174 |5.61111918814174 |Y                |
 |560.0            |6.38429608785497 |5.38429608785497 |Y                |
 |550.0            |5.95596073183719 |4.95596073183719 |Y                |
 |540.0            |5.56361453791259 |4.56361453791259 |Y                |
 |530.0            |5.52566675656498 |4.52566675656498 |Y                |
 |520.0            |5.32467903527958 |4.32467903527958 |Y                |
 |510.0            |4.93796603649195 |3.93796603649195 |Y                |
 |500.0            |4.8990058670297  |3.89900586702970 |Y                |
 |490.0            |4.56102734839123 |3.56102734839123 |Y                |
 |480.0            |4.51774455524480 |3.51774455524480 |Y                |
 |470.0            |4.14965320710268 |3.14965320710268 |Y                |
 |460.0            |3.99993588534869 |2.99993588534869 |Y                |
 |450.0            |3.94136350242740 |2.94136350242740 |Y                |
 |440.0            |3.66230001903579 |2.66230001903579 |Y                |
 |430.0            |3.46136884810016 |2.46136884810016 |Y                |
 |420.0            |3.22139622336897 |2.22139622336897 |Y                |
 |410.0            |2.86168959251415 |1.86168959251415 |Y                |
 |400.0            |2.49707329951934 |1.49707329951934 |Y                |
 |390.0            |2.09235994062612 |1.09235994062612 |Y                |
 |380.0            |1.57190759944467 |0.57190759944467 |Y                |
 |370.0            |1.47971061171313 |0.47971061171313 |Y                |
 |360.0            |1.48593025586239 |0.48593025586239 |Y                |
 |350.0            |1.45525442344830 |0.45525442344830 |Y                |
 |340.0            |1.38817385218317 |0.38817385218317 |Y                |
 |330.0            |1.28739198721734 |0.28739198721734 |Y                |
 |320.0            |1.15882899161624 |0.15882899161624 |Y                |
 |310.0            |1.01260510712404 |0.01260510712404 |Y                |
 |300.0            |0.75046478464738 |-0.1373734206975 |N                |
 |290.0            |0.76275591605284 |-0.2090510947189 |N                |
 |280.0            |0.76179257273535 |-0.3374050088990 |N                |
 |270.0            |0.76069249118757 |-0.4373419613284 |N                |
 |260.0            |0.75945862227808 |-0.5019970226685 |N                |
 |250.0            |0.75809171297319 |-0.5273597422570 |N                |

Win rate = 0.8536585365853658
Average separation value = 3.017316659079805
LEARNING LOG 

Time: 02/02/2020 19:02:38
Evaluation of model defined in msr_eval_66410

Sprint Distance Table:
 |Sprint Distance  |Reward           |Final Sep.       |Win?             |
 |650.0            |8.749131837297   |7.749131837297   |Y                |
 |640.0            |8.90514200202392 |7.90514200202392 |Y                |
 |630.0            |8.75489461072629 |7.75489461072629 |Y                |
 |620.0            |8.56550706414623 |7.56550706414623 |Y                |
 |610.0            |8.22955859007561 |7.22955859007561 |Y                |
 |600.0            |7.94351958132983 |6.94351958132983 |Y                |
 |590.0            |7.53145126746108 |6.53145126746108 |Y                |
 |580.0            |7.17328282838025 |6.17328282838025 |Y                |
 |570.0            |6.61111918814174 |5.61111918814174 |Y                |
 |560.0            |6.38429608785497 |5.38429608785497 |Y                |
 |550.0            |5.95596073183719 |4.95596073183719 |Y                |
 |540.0            |5.56361453791259 |4.56361453791259 |Y                |
 |530.0            |5.52566675656498 |4.52566675656498 |Y                |
 |520.0            |5.32467903527958 |4.32467903527958 |Y                |
 |510.0            |4.93796603649195 |3.93796603649195 |Y                |
 |500.0            |4.8990058670297  |3.89900586702970 |Y                |
 |490.0            |4.56102734839123 |3.56102734839123 |Y                |
 |480.0            |4.51774455524480 |3.51774455524480 |Y                |
 |470.0            |4.14965320710268 |3.14965320710268 |Y                |
 |460.0            |3.99993588534869 |2.99993588534869 |Y                |
 |450.0            |3.94136350242740 |2.94136350242740 |Y                |
 |440.0            |3.66230001903579 |2.66230001903579 |Y                |
 |430.0            |3.46136884810016 |2.46136884810016 |Y                |
 |420.0            |3.22139622336897 |2.22139622336897 |Y                |
 |410.0            |2.86168959251415 |1.86168959251415 |Y                |
 |400.0            |2.49707329951934 |1.49707329951934 |Y                |
 |390.0            |2.09235994062612 |1.09235994062612 |Y                |
 |380.0            |1.57190759944467 |0.57190759944467 |Y                |
 |370.0            |1.47971061171313 |0.47971061171313 |Y                |
 |360.0            |1.48593025586239 |0.48593025586239 |Y                |
 |350.0            |1.45525442344830 |0.45525442344830 |Y                |
 |340.0            |1.38817385218317 |0.38817385218317 |Y                |
 |330.0            |1.28739198721734 |0.28739198721734 |Y                |
 |320.0            |1.15882899161624 |0.15882899161624 |Y                |
 |310.0            |1.01260510712404 |0.01260510712404 |Y                |
 |300.0            |0.75046478464738 |-0.1373734206975 |N                |
 |290.0            |0.76275591605284 |-0.2090510947189 |N                |
 |280.0            |0.76179257273535 |-0.3374050088990 |N                |
 |270.0            |0.76069249118757 |-0.4373419613284 |N                |
 |260.0            |0.75945862227808 |-0.5019970226685 |N                |
 |250.0            |0.75809171297319 |-0.5273597422570 |N                |

Win rate = 0.8536585365853658
Average separation value = 3.017316659079805
LEARNING LOG 

Time: 03/02/2020 14:11:39
Evaluation of model defined in msr_eval_66410

Sprint Distance Table:
 |Sprint Distance  |Reward           |Final Sep.       |Win?             |
 |650.0            |8.749131837297   |7.749131837297   |Y                |
 |640.0            |8.90514200202392 |7.90514200202392 |Y                |
 |630.0            |8.75489461072629 |7.75489461072629 |Y                |
 |620.0            |8.56550706414623 |7.56550706414623 |Y                |
 |610.0            |8.22955859007561 |7.22955859007561 |Y                |
 |600.0            |7.94351958132983 |6.94351958132983 |Y                |
 |590.0            |7.53145126746108 |6.53145126746108 |Y                |
 |580.0            |7.17328282838025 |6.17328282838025 |Y                |
 |570.0            |6.61111918814174 |5.61111918814174 |Y                |
 |560.0            |6.38429608785497 |5.38429608785497 |Y                |
 |550.0            |5.95596073183719 |4.95596073183719 |Y                |
 |540.0            |5.56361453791259 |4.56361453791259 |Y                |
 |530.0            |5.52566675656498 |4.52566675656498 |Y                |
 |520.0            |5.32467903527958 |4.32467903527958 |Y                |
 |510.0            |4.93796603649195 |3.93796603649195 |Y                |
 |500.0            |4.8990058670297  |3.89900586702970 |Y                |
 |490.0            |4.56102734839123 |3.56102734839123 |Y                |
 |480.0            |4.51774455524480 |3.51774455524480 |Y                |
 |470.0            |4.14965320710268 |3.14965320710268 |Y                |
 |460.0            |3.99993588534869 |2.99993588534869 |Y                |
 |450.0            |3.94136350242740 |2.94136350242740 |Y                |
 |440.0            |3.66230001903579 |2.66230001903579 |Y                |
 |430.0            |3.46136884810016 |2.46136884810016 |Y                |
 |420.0            |3.22139622336897 |2.22139622336897 |Y                |
 |410.0            |2.86168959251415 |1.86168959251415 |Y                |
 |400.0            |2.49707329951934 |1.49707329951934 |Y                |
 |390.0            |2.09235994062612 |1.09235994062612 |Y                |
 |380.0            |1.57190759944467 |0.57190759944467 |Y                |
 |370.0            |1.47971061171313 |0.47971061171313 |Y                |
 |360.0            |1.48593025586239 |0.48593025586239 |Y                |
 |350.0            |1.45525442344830 |0.45525442344830 |Y                |
 |340.0            |1.38817385218317 |0.38817385218317 |Y                |
 |330.0            |1.28739198721734 |0.28739198721734 |Y                |
 |320.0            |1.15882899161624 |0.15882899161624 |Y                |
 |310.0            |1.01260510712404 |0.01260510712404 |Y                |
 |300.0            |0.75046478464738 |-0.1373734206975 |N                |
 |290.0            |0.76275591605284 |-0.2090510947189 |N                |
 |280.0            |0.76179257273535 |-0.3374050088990 |N                |
 |270.0            |0.76069249118757 |-0.4373419613284 |N                |
 |260.0            |0.75945862227808 |-0.5019970226685 |N                |
 |250.0            |0.75809171297319 |-0.5273597422570 |N                |

Win rate = 0.8536585365853658
Average separation value = 3.017316659079805
