LEARNING LOG 

Time: 27/01/2020 15:05:03
Evaluation of trained model

 |Sprint Distance|Reward         |Final Sep.     |Win?           |
 |650.0          |6.805328127088 |5.805328127088 |Y              |
 |639.7435897435 |6.482827257562 |5.482827257562 |Y              |
 |629.4871794871 |6.844387476975 |5.844387476975 |Y              |
 |619.2307692307 |6.474895568449 |5.474895568449 |Y              |
 |608.9743589743 |6.389036405855 |5.389036405855 |Y              |
 |598.7179487179 |6.177161569514 |5.177161569514 |Y              |
 |588.4615384615 |6.599057043050 |5.599057043050 |Y              |
 |578.2051282051 |6.254395342676 |5.254395342676 |Y              |
 |567.9487179487 |6.285895768669 |5.285895768669 |Y              |
 |557.6923076923 |6.109102503949 |5.109102503949 |Y              |
 |547.4358974358 |6.145570735966 |5.145570735966 |Y              |
 |537.1794871794 |5.992688197855 |4.992688197855 |Y              |
 |526.9230769230 |6.175765692480 |5.175765692480 |Y              |
 |516.6666666666 |5.865219928473 |4.865219928473 |Y              |
 |506.4102564102 |5.681452764826 |4.681452764826 |Y              |
 |496.1538461538 |5.879388007071 |4.879388007071 |Y              |
 |485.8974358974 |5.974011270156 |4.974011270156 |Y              |
 |475.6410256410 |6.154994952472 |5.154994952472 |Y              |
 |465.3846153846 |6.269537025995 |5.269537025995 |Y              |
 |455.1282051282 |6.299927595264 |5.299927595264 |Y              |
 |444.8717948717 |6.267461192389 |5.267461192389 |Y              |
 |434.6153846153 |6.284218368000 |5.284218368000 |Y              |
 |424.3589743589 |6.257279343267 |5.257279343267 |Y              |
 |414.1025641025 |6.235139677537 |5.235139677537 |Y              |
 |403.8461538461 |6.157093833193 |5.157093833193 |Y              |
 |393.5897435897 |6.054149858091 |5.054149858091 |Y              |
 |383.3333333333 |5.924836914971 |4.924836914971 |Y              |
 |373.0769230769 |5.767699600679 |4.767699600679 |Y              |
 |362.8205128205 |5.540225994429 |4.540225994429 |Y              |
 |352.5641025641 |5.356709421173 |4.356709421173 |Y              |
 |342.3076923076 |5.129167674641 |4.129167674641 |Y              |
 |332.0512820512 |4.815947255694 |3.815947255694 |Y              |
 |321.7948717948 |4.525114852101 |3.525114852101 |Y              |
 |311.5384615384 |4.242416471072 |3.242416471072 |Y              |
 |301.2820512820 |4.023027567592 |3.023027567592 |Y              |
 |291.0256410256 |3.803459014131 |2.803459014131 |Y              |
 |280.7692307692 |3.458704898505 |2.458704898505 |Y              |
 |270.5128205128 |3.268044944901 |2.268044944901 |Y              |
 |260.2564102564 |2.936036551413 |1.936036551413 |Y              |
 |250.0          |2.735094719932 |1.735094719932 |Y              |

Average separation value = 4.591061784701893
