LEARNING LOG 

Time: 12/02/2020 17:37:59
Evaluation of model defined in msr_eval_54969

Sprint Distance Table:
 |Sprint Distance  |Reward           |Final Sep.       |Win?             |
 |650.0            |7.71407789330032 |6.71407789330032 |Y                |
 |640.0            |8.04815752450213 |7.04815752450213 |Y                |
 |630.0            |10.4519440873544 |9.45194408735449 |Y                |
 |620.0            |9.51406509798403 |8.51406509798403 |Y                |
 |610.0            |9.48417455211995 |8.48417455211995 |Y                |
 |600.0            |8.18731653936697 |7.18731653936697 |Y                |
 |590.0            |8.11125452595274 |7.11125452595274 |Y                |
 |580.0            |6.59261936205621 |5.59261936205621 |Y                |
 |570.0            |4.82395325709148 |3.82395325709148 |Y                |
 |560.0            |4.77410484764629 |3.77410484764629 |Y                |
 |550.0            |2.86254263231762 |1.86254263231762 |Y                |
 |540.0            |1.08158625724161 |0.08158625724161 |Y                |
 |530.0            |1.27146855777573 |0.27146855777573 |Y                |
 |520.0            |1.11816889192630 |0.11816889192630 |Y                |
 |510.0            |0.75613302176058 |-0.2033221670337 |N                |
 |500.0            |0.75131179506099 |-0.2999452195767 |N                |
 |490.0            |1.42848307454971 |0.42848307454971 |Y                |
 |480.0            |1.93419398856360 |0.93419398856360 |Y                |
 |470.0            |1.18028127813488 |0.18028127813488 |Y                |
 |460.0            |0.74917031085801 |-0.6940812603687 |N                |
 |450.0            |0.74948013894822 |-0.9392467681462 |N                |
 |440.0            |0.74975438235755 |-1.1453408493102 |N                |
 |430.0            |0.75305926168372 |-0.1296709179274 |N                |
 |420.0            |1.00263356102959 |0.00263356102959 |Y                |
 |410.0            |1.13657256383351 |0.13657256383351 |Y                |
 |400.0            |1.26009757420945 |0.26009757420945 |Y                |
 |390.0            |1.36297200190983 |0.36297200190983 |Y                |
 |380.0            |1.43778389926103 |0.43778389926103 |Y                |
 |370.0            |1.47971061171313 |0.47971061171313 |Y                |
 |360.0            |1.48593025586239 |0.48593025586239 |Y                |
 |350.0            |1.45525442344830 |0.45525442344830 |Y                |
 |340.0            |1.38817385218317 |0.38817385218317 |Y                |
 |330.0            |1.28739198721734 |0.28739198721734 |Y                |
 |320.0            |1.15882899161624 |0.15882899161624 |Y                |
 |310.0            |1.01260510712404 |0.01260510712404 |Y                |
 |300.0            |0.75046478464738 |-0.1373734206975 |N                |
 |290.0            |0.76275591605284 |-0.2090510947189 |N                |
 |280.0            |0.76179257273535 |-0.3374050088990 |N                |
 |270.0            |0.76069249118757 |-0.4373419613284 |N                |
 |260.0            |0.75945862227808 |-0.5019970226685 |N                |
 |250.0            |0.75809171297319 |-0.5273597422570 |N                |

Win rate = 0.7073170731707317
Average separation value = 1.694736872301444
