LEARNING LOG 

Time: 12/02/2020 16:39:21
Evaluation of model defined in msr_eval_36244

Sprint Distance Table:
 |Sprint Distance  |Reward           |Final Sep.       |Win?             |
 |650.0            |0.75257060064299 |-1.1604811891296 |N                |
 |640.0            |0.74989332864937 |-0.2590919084915 |N                |
 |630.0            |1.36335103650856 |0.36335103650856 |Y                |
 |620.0            |1.96704318964953 |0.96704318964953 |Y                |
 |610.0            |2.80960523390217 |1.80960523390217 |Y                |
 |600.0            |3.32669435906211 |2.32669435906211 |Y                |
 |590.0            |3.80753496277918 |2.80753496277918 |Y                |
 |580.0            |4.46006312333190 |3.46006312333190 |Y                |
 |570.0            |4.84877907852796 |3.84877907852796 |Y                |
 |560.0            |5.20007877282148 |4.20007877282148 |Y                |
 |550.0            |5.65616614851785 |4.65616614851785 |Y                |
 |540.0            |5.91248766888281 |4.91248766888281 |Y                |
 |530.0            |6.13018644339172 |5.13018644339172 |Y                |
 |520.0            |6.30884294117174 |5.30884294117174 |Y                |
 |510.0            |6.44798041060630 |5.44798041060630 |Y                |
 |500.0            |6.58137121104118 |5.58137121104118 |Y                |
 |490.0            |6.61914065101575 |5.61914065101575 |Y                |
 |480.0            |6.61510411422432 |5.61510411422432 |Y                |
 |470.0            |6.56839509360145 |5.56839509360145 |Y                |
 |460.0            |6.47804324988339 |5.47804324988339 |Y                |
 |450.0            |6.34297423723660 |5.34297423723660 |Y                |
 |440.0            |6.16201298214275 |5.16201298214275 |Y                |
 |430.0            |5.93389063433403 |4.93389063433403 |Y                |
 |420.0            |5.65725524574782 |4.65725524574782 |Y                |
 |410.0            |5.33068598571276 |4.33068598571276 |Y                |
 |400.0            |4.95271036916835 |3.95271036916835 |Y                |
 |390.0            |4.52182358767140 |3.52182358767140 |Y                |
 |380.0            |4.03650866538180 |3.03650866538180 |Y                |
 |370.0            |3.49525613604328 |2.49525613604328 |Y                |
 |360.0            |2.89658537372304 |1.89658537372304 |Y                |
 |350.0            |2.23912043362179 |1.23912043362179 |Y                |
 |340.0            |1.52260711602775 |0.52260711602775 |Y                |
 |330.0            |0.75704546552396 |-0.2395654989827 |N                |
 |320.0            |0.75606277065829 |-0.9977987991965 |N                |
 |310.0            |0.75495585613224 |-1.7227039187797 |N                |
 |300.0            |0.75372192732859 |-2.4100710413767 |N                |
 |290.0            |0.75235433530984 |-3.0586756716805 |N                |
 |280.0            |0.75084604571466 |-3.6674854511882 |N                |
 |270.0            |0.74918994127671 |-4.2355131622330 |N                |
 |260.0            |0.74737900303495 |-4.7618109028688 |N                |
 |250.0            |0.74540656864106 |-5.2454644427756 |N                |

Win rate = 0.7317073170731707
Average separation value = 2.1081374748543302
