Sprint Distance - Rewards: 
650.0 - 8.717420474632718
639.7435897435897 - 8.969176573946697
629.4871794871794 - 8.933226534201367
619.2307692307693 - 8.827897811343291
608.974358974359 - 8.658622020952407
598.7179487179487 - 8.405764763897082
588.4615384615385 - 8.081193991148098
578.2051282051282 - 7.718952802551598
567.948717948718 - 7.3719678538329845
557.6923076923076 - 7.012917634312885
547.4358974358975 - 6.656485410787468
537.1794871794872 - 6.248658102168747
526.9230769230769 - 5.877274823217363
516.6666666666666 - 5.468394398006353
506.4102564102564 - 5.097497077212665
496.15384615384613 - 4.769401435816917
485.8974358974359 - 4.354391870808968
475.64102564102564 - 4.021690009278018
465.38461538461536 - 3.727437497949836
455.1282051282051 - 3.3559645165094025
444.87179487179486 - 2.995751097691141
434.6153846153846 - 2.647808526413428
424.35897435897436 - 2.34033323986057
414.1025641025641 - 2.0360950916575575
403.8461538461538 - 1.8358766460756897
393.5897435897436 - 1.5192422308573441
383.3333333333333 - 1.359143819517385
373.07692307692304 - 1.2315786931695811
362.8205128205128 - 1.1165491907262322
352.56410256410254 - 1.115753889251323
342.30769230769226 - 1.1309771967611368
332.05128205128204 - 1.1753410741331436
321.79487179487177 - 1.2411239963988692
311.5384615384615 - 1.31810510797186
301.28205128205127 - 1.356554713319838
291.025641025641 - 1.4204243629178563
280.7692307692307 - 1.427049101548505
270.5128205128205 - 1.4112572531078058
260.2564102564102 - 1.3611965551500589
250.0 - 1.2525214601880634

Sprint Distance - Separation values: 
650.0 - 7.717420474632718
639.7435897435897 - 7.969176573946697
629.4871794871794 - 7.933226534201367
619.2307692307693 - 7.827897811343291
608.974358974359 - 7.658622020952407
598.7179487179487 - 7.405764763897082
588.4615384615385 - 7.081193991148098
578.2051282051282 - 6.718952802551598
567.948717948718 - 6.3719678538329845
557.6923076923076 - 6.012917634312885
547.4358974358975 - 5.656485410787468
537.1794871794872 - 5.248658102168747
526.9230769230769 - 4.877274823217363
516.6666666666666 - 4.468394398006353
506.4102564102564 - 4.097497077212665
496.15384615384613 - 3.769401435816917
485.8974358974359 - 3.3543918708089677
475.64102564102564 - 3.021690009278018
465.38461538461536 - 2.727437497949836
455.1282051282051 - 2.3559645165094025
444.87179487179486 - 1.9957510976911408
434.6153846153846 - 1.647808526413428
424.35897435897436 - 1.3403332398605698
414.1025641025641 - 1.0360950916575575
403.8461538461538 - 0.8358766460756897
393.5897435897436 - 0.5192422308573441
383.3333333333333 - 0.35914381951738505
373.07692307692304 - 0.23157869316958113
362.8205128205128 - 0.11654919072623215
352.56410256410254 - 0.11575388925132302
342.30769230769226 - 0.13097719676113684
332.05128205128204 - 0.1753410741331436
321.79487179487177 - 0.24112399639886917
311.5384615384615 - 0.31810510797186
301.28205128205127 - 0.3565547133198379
291.025641025641 - 0.42042436291785634
280.7692307692307 - 0.42704910154850495
270.5128205128205 - 0.4112572531078058
260.2564102564102 - 0.3611965551500589
250.0 - 0.25252146018806343
