Sprint Distance - Rewards: 
650 - 0.6960709715746177
600 - 0.7028215643029442
550 - 0.7038515130635886
500 - 0.7109164400787215
450 - 0.7125728529298716
400 - 0.7220436001350459
350 - 0.7259869655740674
300 - 0.7315621038612161
250 - 0.7324589918083731

Sprint Distance - Separation values: 
650 - -47.13213154909022
600 - -41.175876255165576
550 - -34.89519335895511
500 - -28.894682414121235
450 - -22.880409020307866
400 - -17.52353231003474
350 - -13.010387082907187
300 - -9.880957869580016
250 - -7.7778943975652055
