LEARNING LOG 

Time: 12/02/2020 16:39:34
Evaluation of model defined in msr_eval_45053

Sprint Distance Table:
 |Sprint Distance  |Reward           |Final Sep.       |Win?             |
 |650.0            |0.74814755407421 |-4.6675540160521 |N                |
 |640.0            |0.74996696236328 |-4.3139796376020 |N                |
 |630.0            |0.74739289557696 |-3.3044082803357 |N                |
 |620.0            |0.74934099578861 |-2.8156968590378 |N                |
 |610.0            |0.75129084013742 |-2.3442985726516 |N                |
 |600.0            |0.74828884187376 |-1.3945851457174 |N                |
 |590.0            |0.75012225380631 |-0.9671424112846 |N                |
 |580.0            |0.75194577576861 |-0.5645905928255 |N                |
 |570.0            |0.75371407352033 |-0.2238945693326 |N                |
 |560.0            |1.58407422834000 |0.58407422834000 |Y                |
 |550.0            |1.87450788818489 |0.87450788818489 |Y                |
 |540.0            |2.29158091266310 |1.29158091266310 |Y                |
 |530.0            |2.63977969185305 |1.63977969185305 |Y                |
 |520.0            |3.17758992287224 |2.17758992287224 |Y                |
 |510.0            |3.25774957697808 |2.25774957697808 |Y                |
 |500.0            |3.45693333919712 |2.45693333919712 |Y                |
 |490.0            |3.64508821401261 |2.64508821401261 |Y                |
 |480.0            |3.62925091386580 |2.62925091386580 |Y                |
 |470.0            |4.08137496184053 |3.08137496184053 |Y                |
 |460.0            |3.92752510559250 |2.92752510559250 |Y                |
 |450.0            |4.04896999527397 |3.04896999527397 |Y                |
 |440.0            |3.91598375248815 |2.91598375248815 |Y                |
 |430.0            |3.78937032287456 |2.78937032287456 |Y                |
 |420.0            |3.55970563332437 |2.55970563332437 |Y                |
 |410.0            |3.44929584226986 |2.44929584226986 |Y                |
 |400.0            |3.21560362496711 |2.21560362496711 |Y                |
 |390.0            |2.87673276238388 |1.87673276238388 |Y                |
 |380.0            |2.61443241606787 |1.61443241606787 |Y                |
 |370.0            |2.27546454707771 |1.27546454707771 |Y                |
 |360.0            |1.72847643836860 |0.72847643836860 |Y                |
 |350.0            |1.09589024498166 |0.09589024498166 |Y                |
 |340.0            |0.75551351766203 |-0.5329131408800 |N                |
 |330.0            |0.75494399514385 |-1.1629089200636 |N                |
 |320.0            |0.75425301184841 |-1.7700402024526 |N                |
 |310.0            |0.75343525731473 |-2.3512990319114 |N                |
 |300.0            |0.75248190958102 |-2.9061193952695 |N                |
 |290.0            |0.75138290649900 |-3.4343128858108 |N                |
 |280.0            |0.75012700100950 |-3.9359353402203 |N                |
 |270.0            |0.74866073958747 |-4.4260288456000 |N                |
 |260.0            |0.74705454049848 |-4.8742919084979 |N                |
 |250.0            |0.74524946157649 |-5.2978334072031 |N                |

Win rate = 0.5365853658536586
Average separation value = -0.174450068957845
