LEARNING LOG 

Time: 02/02/2020 17:25:34
Evaluation of model defined in msr_eval_112347

Sprint Distance Table:
 |Sprint Distance  |Reward           |Final Sep.       |Win?             |
 |650.0            |7.49718870282890 |6.49718870282890 |Y                |
 |640.0            |6.99083476393695 |5.99083476393695 |Y                |
 |630.0            |6.98547109259743 |5.98547109259743 |Y                |
 |620.0            |6.81863338961648 |5.81863338961648 |Y                |
 |610.0            |6.40106055139676 |5.40106055139676 |Y                |
 |600.0            |6.37831602466405 |5.37831602466405 |Y                |
 |590.0            |5.76593103031950 |4.76593103031950 |Y                |
 |580.0            |5.52791960347292 |4.52791960347292 |Y                |
 |570.0            |5.30145348102803 |4.30145348102803 |Y                |
 |560.0            |4.89551400075606 |3.89551400075606 |Y                |
 |550.0            |4.87442101309955 |3.87442101309955 |Y                |
 |540.0            |4.48861888782971 |3.48861888782971 |Y                |
 |530.0            |4.14093917895729 |3.14093917895729 |Y                |
 |520.0            |4.04446180671345 |3.04446180671345 |Y                |
 |510.0            |3.81881310066614 |2.81881310066614 |Y                |
 |500.0            |3.75819032693721 |2.75819032693721 |Y                |
 |490.0            |3.71201685642972 |2.71201685642972 |Y                |
 |480.0            |3.49062090182269 |2.49062090182269 |Y                |
 |470.0            |3.44286552269807 |2.44286552269807 |Y                |
 |460.0            |3.35752595272174 |2.35752595272174 |Y                |
 |450.0            |3.05730686409265 |2.05730686409265 |Y                |
 |440.0            |1.29908272944283 |0.29908272944283 |Y                |
 |430.0            |0.75305926168372 |-0.1296709179274 |N                |
 |420.0            |1.00263356102959 |0.00263356102959 |Y                |
 |410.0            |1.13657256383351 |0.13657256383351 |Y                |
 |400.0            |1.26009757420945 |0.26009757420945 |Y                |
 |390.0            |1.36297200190983 |0.36297200190983 |Y                |
 |380.0            |1.43778389926103 |0.43778389926103 |Y                |
 |370.0            |1.47971061171313 |0.47971061171313 |Y                |
 |360.0            |1.48593025586239 |0.48593025586239 |Y                |
 |350.0            |1.45525442344830 |0.45525442344830 |Y                |
 |340.0            |1.38817385218317 |0.38817385218317 |Y                |
 |330.0            |1.28739198721734 |0.28739198721734 |Y                |
 |320.0            |1.15882899161624 |0.15882899161624 |Y                |
 |310.0            |1.01260510712404 |0.01260510712404 |Y                |
 |300.0            |0.75046478464738 |-0.1373734206975 |N                |
 |290.0            |0.76275591605284 |-0.2090510947189 |N                |
 |280.0            |0.76179257273535 |-0.3374050088990 |N                |
 |270.0            |0.76069249118757 |-0.4373419613284 |N                |
 |260.0            |0.75945862227808 |-0.5019970226685 |N                |
 |250.0            |0.75809171297319 |-0.5273597422570 |N                |

Win rate = 0.8292682926829268
Average separation value = 2.078901010803395
LEARNING LOG 

Time: 02/02/2020 19:01:51
Evaluation of model defined in msr_eval_112347

Sprint Distance Table:
 |Sprint Distance  |Reward           |Final Sep.       |Win?             |
 |650.0            |7.49718870282890 |6.49718870282890 |Y                |
 |640.0            |6.99083476393695 |5.99083476393695 |Y                |
 |630.0            |6.98547109259743 |5.98547109259743 |Y                |
 |620.0            |6.81863338961648 |5.81863338961648 |Y                |
 |610.0            |6.40106055139676 |5.40106055139676 |Y                |
 |600.0            |6.37831602466405 |5.37831602466405 |Y                |
 |590.0            |5.76593103031950 |4.76593103031950 |Y                |
 |580.0            |5.52791960347292 |4.52791960347292 |Y                |
 |570.0            |5.30145348102803 |4.30145348102803 |Y                |
 |560.0            |4.89551400075606 |3.89551400075606 |Y                |
 |550.0            |4.87442101309955 |3.87442101309955 |Y                |
 |540.0            |4.48861888782971 |3.48861888782971 |Y                |
 |530.0            |4.14093917895729 |3.14093917895729 |Y                |
 |520.0            |4.04446180671345 |3.04446180671345 |Y                |
 |510.0            |3.81881310066614 |2.81881310066614 |Y                |
 |500.0            |3.75819032693721 |2.75819032693721 |Y                |
 |490.0            |3.71201685642972 |2.71201685642972 |Y                |
 |480.0            |3.49062090182269 |2.49062090182269 |Y                |
 |470.0            |3.44286552269807 |2.44286552269807 |Y                |
 |460.0            |3.35752595272174 |2.35752595272174 |Y                |
 |450.0            |3.05730686409265 |2.05730686409265 |Y                |
 |440.0            |1.29908272944283 |0.29908272944283 |Y                |
 |430.0            |0.75305926168372 |-0.1296709179274 |N                |
 |420.0            |1.00263356102959 |0.00263356102959 |Y                |
 |410.0            |1.13657256383351 |0.13657256383351 |Y                |
 |400.0            |1.26009757420945 |0.26009757420945 |Y                |
 |390.0            |1.36297200190983 |0.36297200190983 |Y                |
 |380.0            |1.43778389926103 |0.43778389926103 |Y                |
 |370.0            |1.47971061171313 |0.47971061171313 |Y                |
 |360.0            |1.48593025586239 |0.48593025586239 |Y                |
 |350.0            |1.45525442344830 |0.45525442344830 |Y                |
 |340.0            |1.38817385218317 |0.38817385218317 |Y                |
 |330.0            |1.28739198721734 |0.28739198721734 |Y                |
 |320.0            |1.15882899161624 |0.15882899161624 |Y                |
 |310.0            |1.01260510712404 |0.01260510712404 |Y                |
 |300.0            |0.75046478464738 |-0.1373734206975 |N                |
 |290.0            |0.76275591605284 |-0.2090510947189 |N                |
 |280.0            |0.76179257273535 |-0.3374050088990 |N                |
 |270.0            |0.76069249118757 |-0.4373419613284 |N                |
 |260.0            |0.75945862227808 |-0.5019970226685 |N                |
 |250.0            |0.75809171297319 |-0.5273597422570 |N                |

Win rate = 0.8292682926829268
Average separation value = 2.078901010803395
LEARNING LOG 

Time: 03/02/2020 14:08:58
Evaluation of model defined in msr_eval_112347

Sprint Distance Table:
 |Sprint Distance  |Reward           |Final Sep.       |Win?             |
 |650.0            |7.49718870282890 |6.49718870282890 |Y                |
 |640.0            |6.99083476393695 |5.99083476393695 |Y                |
 |630.0            |6.98547109259743 |5.98547109259743 |Y                |
 |620.0            |6.81863338961648 |5.81863338961648 |Y                |
 |610.0            |6.40106055139676 |5.40106055139676 |Y                |
 |600.0            |6.37831602466405 |5.37831602466405 |Y                |
 |590.0            |5.76593103031950 |4.76593103031950 |Y                |
 |580.0            |5.52791960347292 |4.52791960347292 |Y                |
 |570.0            |5.30145348102803 |4.30145348102803 |Y                |
 |560.0            |4.89551400075606 |3.89551400075606 |Y                |
 |550.0            |4.87442101309955 |3.87442101309955 |Y                |
 |540.0            |4.48861888782971 |3.48861888782971 |Y                |
 |530.0            |4.14093917895729 |3.14093917895729 |Y                |
 |520.0            |4.04446180671345 |3.04446180671345 |Y                |
 |510.0            |3.81881310066614 |2.81881310066614 |Y                |
 |500.0            |3.75819032693721 |2.75819032693721 |Y                |
 |490.0            |3.71201685642972 |2.71201685642972 |Y                |
 |480.0            |3.49062090182269 |2.49062090182269 |Y                |
 |470.0            |3.44286552269807 |2.44286552269807 |Y                |
 |460.0            |3.35752595272174 |2.35752595272174 |Y                |
 |450.0            |3.05730686409265 |2.05730686409265 |Y                |
 |440.0            |1.29908272944283 |0.29908272944283 |Y                |
 |430.0            |0.75305926168372 |-0.1296709179274 |N                |
 |420.0            |1.00263356102959 |0.00263356102959 |Y                |
 |410.0            |1.13657256383351 |0.13657256383351 |Y                |
 |400.0            |1.26009757420945 |0.26009757420945 |Y                |
 |390.0            |1.36297200190983 |0.36297200190983 |Y                |
 |380.0            |1.43778389926103 |0.43778389926103 |Y                |
 |370.0            |1.47971061171313 |0.47971061171313 |Y                |
 |360.0            |1.48593025586239 |0.48593025586239 |Y                |
 |350.0            |1.45525442344830 |0.45525442344830 |Y                |
 |340.0            |1.38817385218317 |0.38817385218317 |Y                |
 |330.0            |1.28739198721734 |0.28739198721734 |Y                |
 |320.0            |1.15882899161624 |0.15882899161624 |Y                |
 |310.0            |1.01260510712404 |0.01260510712404 |Y                |
 |300.0            |0.75046478464738 |-0.1373734206975 |N                |
 |290.0            |0.76275591605284 |-0.2090510947189 |N                |
 |280.0            |0.76179257273535 |-0.3374050088990 |N                |
 |270.0            |0.76069249118757 |-0.4373419613284 |N                |
 |260.0            |0.75945862227808 |-0.5019970226685 |N                |
 |250.0            |0.75809171297319 |-0.5273597422570 |N                |

Win rate = 0.8292682926829268
Average separation value = 2.078901010803395
LEARNING LOG 

Time: 03/02/2020 14:10:59
Evaluation of model defined in msr_eval_112347

Sprint Distance Table:
 |Sprint Distance  |Reward           |Final Sep.       |Win?             |
 |650.0            |7.49718870282890 |6.49718870282890 |Y                |
 |640.0            |6.99083476393695 |5.99083476393695 |Y                |
 |630.0            |6.98547109259743 |5.98547109259743 |Y                |
 |620.0            |6.81863338961648 |5.81863338961648 |Y                |
 |610.0            |6.40106055139676 |5.40106055139676 |Y                |
 |600.0            |6.37831602466405 |5.37831602466405 |Y                |
 |590.0            |5.76593103031950 |4.76593103031950 |Y                |
 |580.0            |5.52791960347292 |4.52791960347292 |Y                |
 |570.0            |5.30145348102803 |4.30145348102803 |Y                |
 |560.0            |4.89551400075606 |3.89551400075606 |Y                |
 |550.0            |4.87442101309955 |3.87442101309955 |Y                |
 |540.0            |4.48861888782971 |3.48861888782971 |Y                |
 |530.0            |4.14093917895729 |3.14093917895729 |Y                |
 |520.0            |4.04446180671345 |3.04446180671345 |Y                |
 |510.0            |3.81881310066614 |2.81881310066614 |Y                |
 |500.0            |3.75819032693721 |2.75819032693721 |Y                |
 |490.0            |3.71201685642972 |2.71201685642972 |Y                |
 |480.0            |3.49062090182269 |2.49062090182269 |Y                |
 |470.0            |3.44286552269807 |2.44286552269807 |Y                |
 |460.0            |3.35752595272174 |2.35752595272174 |Y                |
 |450.0            |3.05730686409265 |2.05730686409265 |Y                |
 |440.0            |1.29908272944283 |0.29908272944283 |Y                |
 |430.0            |0.75305926168372 |-0.1296709179274 |N                |
 |420.0            |1.00263356102959 |0.00263356102959 |Y                |
 |410.0            |1.13657256383351 |0.13657256383351 |Y                |
 |400.0            |1.26009757420945 |0.26009757420945 |Y                |
 |390.0            |1.36297200190983 |0.36297200190983 |Y                |
 |380.0            |1.43778389926103 |0.43778389926103 |Y                |
 |370.0            |1.47971061171313 |0.47971061171313 |Y                |
 |360.0            |1.48593025586239 |0.48593025586239 |Y                |
 |350.0            |1.45525442344830 |0.45525442344830 |Y                |
 |340.0            |1.38817385218317 |0.38817385218317 |Y                |
 |330.0            |1.28739198721734 |0.28739198721734 |Y                |
 |320.0            |1.15882899161624 |0.15882899161624 |Y                |
 |310.0            |1.01260510712404 |0.01260510712404 |Y                |
 |300.0            |0.75046478464738 |-0.1373734206975 |N                |
 |290.0            |0.76275591605284 |-0.2090510947189 |N                |
 |280.0            |0.76179257273535 |-0.3374050088990 |N                |
 |270.0            |0.76069249118757 |-0.4373419613284 |N                |
 |260.0            |0.75945862227808 |-0.5019970226685 |N                |
 |250.0            |0.75809171297319 |-0.5273597422570 |N                |

Win rate = 0.8292682926829268
Average separation value = 2.078901010803395
